"TQVIIV","0.807930082995"
"IQVIYV","0.805800543768"
"YQVIIV","0.805770384473"
"VQVIIS","0.802715412494"
"SQVIIV","0.802291647432"
"IQVYIV","0.801848409325"
"VQVIIT","0.801807443494"
"VQVIIY","0.801256373119"
"TQVIIY","0.797690234115"
"TQVIYI","0.796396342927"
"YQVIIT","0.796333702073"
"TIVIYS","0.796299741692"
"IQVIYT","0.796268872036"
"TQVIIT","0.796150796723"
"TEVIIV","0.795904699148"
"TQVIIS","0.795721602063"
"VQVTYV","0.795407336886"
"TCVIIN","0.795329951832"
"VQVIYI","0.794855866724"
"TDVIIV","0.794573780701"
"VQVIYV","0.794058664489"
"TQVYII","0.79395820949"
"IQVYIT","0.793725777377"
"VQSIIV","0.793672211872"
"YQVIIS","0.793474438821"
"TIQIYV","0.793451271686"
"IQVIYS","0.793420471177"
"SQVIIT","0.793031421415"
"YDVIIV","0.792761024238"
"IDVIYV","0.79273734582"
"VDVIIT","0.792574189432"
"YEVIIV","0.792528009049"
"IEVIYV","0.792458424724"
"IDVYIV","0.792361114372"
"VDVIIY","0.792355875815"
"IQVYIS","0.792341271608"
"TIVNIC","0.792192146576"
"SQVIIY","0.791994879158"
"QIVIYS","0.791966718653"
"VQVYIV","0.791919265403"
"VDVIYI","0.791607278447"
"IEVYIV","0.791365283646"
"VEVIIY","0.791350480607"
"VIEIYV","0.790795016295"
"VEVIIT","0.790387590829"
"VDVYII","0.790226241247"
"TIVNIV","0.790204172484"
"VQVYYV","0.789969228699"
"TQVIIC","0.789943005499"
"TIVWIS","0.789907854567"
"VDVIIS","0.789800187038"
"SQVIYI","0.789669562875"
"QIVYIS","0.789644233161"
"SDVIIV","0.789558181848"
"VEVIYI","0.789224707359"
"VQVIYC","0.789178394957"
"TQSIIV","0.789152523395"
"VDVTYV","0.789148529129"
"VDVIYV","0.788923060524"
"TIVYIS","0.788789145879"
"VDVYIV","0.788749712144"
"TIQYIV","0.788734403373"
"YQSIIV","0.78833602866"
"VIEYIV","0.788285962914"
"TQIIYV","0.788285171669"
"VEVIIS","0.78818551546"
"IQSIYV","0.788160788747"
"TCVNIV","0.787964366024"
"VQVYIC","0.787753916736"
"GQVVYV","0.787581467692"
"SEVIIV","0.787522394815"
"VQVNYV","0.787467828687"
"LQVIYV","0.787352274156"
"VQVKYV","0.787344916733"
"TQVLIV","0.787135463668"
"SIVIYS","0.787085939275"
"VDIIYV","0.786871836997"
"NIVIYC","0.786657714248"
"YIVEIV","0.78655015248"
"QIVIYT","0.786539790477"
"LQVYIV","0.786184566914"
"IIVEYV","0.786145012369"
"TIVIYQ","0.786114349549"
"TIVEIV","0.785961257121"
"VQCIYV","0.785818686912"
"GQVTYV","0.785780488689"
"VIQIYS","0.78574919509"
"SQVYII","0.785529767794"
"VEVYII","0.785465241004"
"YQVIIC","0.785389551583"
"HQVIIV","0.785279738024"
"IQVIYC","0.785270046498"
"TCVYYV","0.78522794018"
"KVVNYV","0.784943471336"
"IQVIIS","0.784745303514"
"SIQIYV","0.784684403465"
"VQVIYL","0.784672193306"
"QYVIIS","0.784668122788"
"VQVYII","0.784531575815"
"VDYIIV","0.783971456604"
"TQVIIL","0.783894819118"
"VQFIYV","0.783822209001"
"TFVIYS","0.78381975376"
"QVVNYV","0.783726378328"
"IQVLYV","0.783664186065"
"YQVLIV","0.783636342367"
"TQYIIV","0.783634713214"
"SIVIYQ","0.783346564094"
"TIVNIS","0.783323780614"
"SQVIIS","0.78329554385"
"KQVIYV","0.783259610821"
"HQVIIT","0.783254383211"
"VQVIYF","0.783217481639"
"VDVIIV","0.78320070035"
"TCVIIS","0.783060399511"
"VIVKYV","0.783017981186"
"TCVIYV","0.7830143402"
"KQVYIV","0.782994348375"
"VYEIIV","0.782943848311"
"TIVIYN","0.782921604881"
"IQSYIV","0.782916230569"
"LQVIIT","0.782904118311"
"NCVIIT","0.782859776625"
"NIVYIC","0.782821471374"
"VIQIYV","0.782691531428"
"QQVTYV","0.782689770013"
"VCVIYN","0.782664537249"
"YCVIIN","0.782658033293"
"IQVIYY","0.782545930011"
"VQSIIY","0.782543602417"
"YQVIIY","0.78254350608"
"TQCIIV","0.782510916634"
"TQWIIV","0.78245164827"
"FQVIYV","0.782400480116"
"VQVWIV","0.782381516956"
"IQVYIC","0.782372301691"
"VQVFYS","0.782316819271"
"VQVYFS","0.782309684585"
"QIVIYV","0.782295507959"
"VQVIIV","0.782273980974"
"ICVIYN","0.78223170803"
"VIVNYC","0.782042333174"
"SQVFYV","0.782004304669"
"TQVIIM","0.782000951349"
"SQVYFV","0.781996305534"
"GVVIYS","0.781910633895"
"VCVYYC","0.78184655828"
"TIVYIN","0.781793064534"
"VDIYIV","0.781756068745"
"VQCYIV","0.781670678525"
"VQFYIV","0.781507440776"
"NCVIYV","0.781360305113"
"YIVNIC","0.78133115498"
"VQVYIL","0.781274180472"
"VQWIIT","0.781114837122"
"VQVLYV","0.780997167097"
"IIVNYC","0.780990105558"
"TQVWII","0.780825602057"
"GIVIYT","0.7807909927"
"HIVIYS","0.780789143742"
"IQVWIT","0.780729511807"
"TQVWIV","0.78064527648"
"LQVIIY","0.780641668225"
"TQVIYV","0.780633403671"
"GQVIIV","0.780631090499"
"TIVNIT","0.780629679785"
"VQVLIT","0.780500591135"
"TDVIIS","0.780495471346"
"VQVYIF","0.780405203061"
"VCVNYV","0.780367515341"
"TQVYIV","0.780285682434"
"AQVIIV","0.780269894558"
"GIVIYS","0.780246981744"
"VDVVYV","0.780243162781"
"TQIYIV","0.780233678091"
"VIVEIY","0.780089490066"
"TQVIII","0.780077728946"
"YQVIYI","0.780022554015"
"AQVIIT","0.780013411157"
"VIQIYT","0.779868384779"
"YQVIIM","0.779867508264"
"VQVWIT","0.779863600241"
"VIVNIS","0.779854930141"
"IQVIYM","0.779854705721"
"IQVYIY","0.779797898198"
"VQVVYN","0.779772903073"
"TQVTYV","0.779743937371"
"VQVLIS","0.779731854386"
"VIVIYN","0.779730178548"
"TQVIIA","0.77968081762"
"MQVIIT","0.779602633765"
"TQVIFV","0.77960168577"
"VQVIYT","0.779522096319"
"TYQIIV","0.779500639632"
"VDVYYV","0.7794993118"
"SIVIYN","0.779473726251"
"TQVIYT","0.779472143699"
"TDVIIY","0.779460386769"
"IQVIIT","0.779446749032"
"TFVYIS","0.779408582766"
