"Classification","FTIR Image","FTIR peaks","Proteostat binding","Sequence","TANGO","TEM Staining","TEM image","Waltz 1","Subset"
"amyloid","","","","AGVNYF","0","N.A.","","568.9","Literature"
"amyloid","","","","AILSST","0","no","","0","Literature"
"amyloid","","","","AIVAGD","0","N.A.","","0","Literature"
"amyloid","","","","AIVAGS","0","N.A.","","0","Literature"
"amyloid","","","","AIVAGT","0","N.A.","","0","Literature"
"amyloid","","","","ALEEYT","0","N.A.","","27.3","Literature"
"amyloid","","","","AQFIIS","0","N.A.","","599.3","Literature"
"amyloid","","","","ASSSNY","0","N.A.","","0","Literature"
"amyloid","","","","ATVIIE","0","N.A.","","480.1","Amylhex"
"amyloid","CGVIGI.png","1677.79/1639.93","0","CGVIGI","0","yes","CGVIGI.png","0","SOD1"
"amyloid","","","","DCVNIT","0","N.A.","","163.3","Literature"
"amyloid","DHCIIG.png","1678.75/1646/1637.88","16.36","DHCIIG","0","yes","DHCIIG.png","0.3","SOD1"
"amyloid","","","","DHCIIW","0","yes","DHCIIW.png","0.3","SOD1"
"amyloid","DSVISL.png","1677.22/1642.69","0","DSVISL","0","yes","DSVISL.png","0","SOD1"
"amyloid","","","","DTVIIE","0","N.A.","","69.6","Amylhex"
"amyloid","","","","EGVLYV","0","N.A.","","293.9","Literature"
"amyloid","","","","ETVIIE","0","N.A.","","56.1","Amylhex"
"amyloid","","","","EYSNFS","0","N.A.","","19.2","Literature"
"amyloid","","","","FAIRHF","0","N.A.","","0","Literature"
"amyloid","","","","FESNFN","0","N.A.","","100.8","Literature"
"amyloid","","","","FLVHSS","0","N.A.","","0","Amylhex"
"amyloid","FSINPA.png","1679.39/1647/1612","0","FSINPA","0","yes","FSINPA.png","0","TDP43"
"amyloid","FTFIQF.png","1680/1648","58.89","FTFIQF","0.9","yes","FTFIQF.png","0","Newcores"
"amyloid","","","","FTVIIE","90.5","N.A.","","237.4","Amylhex"
"amyloid","","","","FYLLYY","122.8","N.A.","","538.1","Amylhex"
"amyloid","","","","GAITIG","0","N.A.","","5.8","Literature"
"amyloid","GDHCII.png","1679.91/1650.75","0","GDHCII","0","yes","GDHCII.png","0","SOD1"
"amyloid","","","","GEWTYD","0","N.A.","","353.7","Literature"
"amyloid","GFFQQQ.png","1678.97/1644.47","78.97","GFFQQQ","0","yes","GFFQQQ.png","0","Newcores"
"amyloid","GGGNNS.png","1678.99/1656.99/1643.55","0","GGGNNS","0","yes","GGGNNS.png","0","Functionals"
"amyloid","","","","GGVVIA","0","N.A.","","25.8","Literature"
"amyloid","GIVIVA.png","1680.09/1650.77/1632.91","5.65","GIVIVA","7.1","yes","GIVIVA.png","0.1","Functionals"
"amyloid","GLFINM.png","1679.33","17.94","GLFINM","0","yes","GLFINM.png","0.1","Newcores"
"amyloid","GMMGML.png","1679.19/1641.71","0","GMMGML","0","yes","GMMGML.png","0","TDP43"
"amyloid","GNFNNL.png","1680/1646/1618","38.59","GNFNNL","0","yes","GNFNNL.png","0","Newcores"
"amyloid","","","","GTFFIN","0","N.A.","","558.8","Literature"
"amyloid","","","","GTFFIT","0","N.A.","","329","Literature"
"amyloid","","","","GTFNII","0","N.A.","","312.8","Literature"
"amyloid","","","","GTVIIE","0","N.A.","","370.6","Amylhex"
"amyloid","","","","GTVLFM","0","N.A.","","503","Literature"
"amyloid","GVIGIA.png","1678/1643.94","91.48","GVIGIA","0","yes","GVIGIA.png","0","SOD1"
"amyloid","GVIWIA.png","1679.87/1641.56","69.97","GVIWIA","2.3","yes","GVIWIA.png","553","SOD1"
"amyloid","","","","GVNYFL","0","N.A.","","309.4","Literature"
"amyloid","GYFILQ.png","1678.94/1643/1626","354.25","GYFILQ","0","yes","GYFILQ.png","15.6","Newcores"
"amyloid","GYFLNF.png","1680.25/1643.98/1625.38","190.68","GYFLNF","0","yes","GYFLNF.png","0.1","Newcores"
"amyloid","GYFLNM.png","1678.7/1647/1627.75","584.46","GYFLNM","0","yes","GYFLNM.png","0.1","Newcores"
"amyloid","","","","GYMLGS","0","N.A.","","0","Literature"
"amyloid","","","","GYVLGS","0","N.A.","","0","Literature"
"amyloid","","","","HFVWIA","0.8","N.A.","","599.8","Literature"
"amyloid","HGFNQQ.png","1676.56/1640.53","0.39","HGFNQQ","0","yes","HGFNQQ.png","0","Newcores"
"amyloid","","","","HGWLIM","0","N.A.","","479","Literature"
"amyloid","HIFLLC.png","1680.34/1647.7/1635.46","465.58","HIFLLC","0","yes","HIFLLC.png","4.2","Newcores"
"amyloid","HLFNLT.png","1679.16/1633.12","716.24","HLFNLT","0","yes","HLFNLT.png","1.5","Newcores"
"amyloid","","","","HLVYIM","0.8","N.A.","","596.6","Literature"
"amyloid","","1679.1","0","HQFNLN","0","yes","HQFNLN.png","45.4","Newcores"
"amyloid","","","","HQLIIM","0","N.A.","","568.2","Literature"
"amyloid","","","","HSSNNF","0","N.A.","","0","Literature"
"amyloid","HTFNLL.png","1678.91/1640.04","64.74","HTFNLL","0","yes","HTFNLL.png","0.2","Newcores"
"amyloid","","","","HTVIIE","0","N.A.","","243.7","Amylhex"
"amyloid","","","","HYFNIF","0","N.A.","","593.2","Literature"
"amyloid","","","","IEMIFV","0","N.A.","","6.8","Literature"
"amyloid","","","","IFDFIQ","0","N.A.","","1.1","Literature"
"amyloid","","","","IIHFGS","0","N.A.","","0","Literature"
"amyloid","","","","IINFIT","2.5","N.A.","","183.9","Literature"
"amyloid","","","","ILVAGD","0","N.A.","","0","Literature"
"amyloid","","","","ILVAGS","0","N.A.","","0","Literature"
"amyloid","","","","ISFLIF","56.5","N.A.","","299.5","Literature"
"amyloid","","","","ITVIIE","4.4","N.A.","","212.7","Amylhex"
"amyloid","IVATTR.png","1678.73/1646.17","0","IVATTR","0","yes","IVATTR.png","0","Functionals"
"amyloid","IVYSCE.png","1680.25/1641.93","0","IVYSCE","0","yes","IVYSCE.png","0","Sebset"
"amyloid","IVYSWE.png","1678.48/1638.39","0","IVYSWE","0","yes","IVYSWE.png","0","Sebset"
"amyloid","","","","KDWSFY","0","N.A.","","28.2","Amylhex"
"amyloid","","","","KHIIVA","0","N.A.","","0","Literature"
"amyloid","","","","KIVKWD","0","N.A.","","0.8","Amylhex"
"amyloid","","","","KLFIIQ","0","N.A.","","556.7","Literature"
"amyloid","KLFIQF.png","1677.65/1650.87/1629","16.11","KLFIQF","0","yes","KLFIQF.png","0.1","Newcores"
"amyloid","","","","KLLIYE","0","N.A.","","204.1","Literature"
"amyloid","","","","KLVFFA","0","N.A.","","506","Literature"
"amyloid","","","","KNFNYN","0","N.A.","","491","Literature"
"amyloid","KQIGII.png","1678.24/1648/1637","49.97","KQIGII","0","yes","KQIGII.png","0","FUS"
"amyloid","","","","KTVIIE","0","N.A.","","137.7","Amylhex"
"amyloid","","","","KVQIIN","0","N.A.","","493","Literature"
"amyloid","","","","LANFLV","0","N.A.","","0.2","Literature"
"amyloid","","","","LAVAGD","0","N.A.","","0","Literature"
"amyloid","","","","LAVLFL","68.5","N.A.","","558.3","Literature"
"amyloid","LEFWLQ.png","1643","0","LEFWLQ","0","yes","LEFWLQ.png","4.9","Newcores"
"amyloid","","","","LIFLIV","460.7","N.A.","","595.1","Literature"
"amyloid","","","","LIVAAD","0","N.A.","","0","Literature"
"amyloid","","","","LIVAGD","0","N.A.","","0","Literature"
"amyloid","","","","LIVAGE","0","N.A.","","0","Literature"
"amyloid","","","","LIVAGK","0","N.A.","","0","Literature"
"amyloid","","","","LIVAGS","0","N.A.","","0","Literature"
"amyloid","","","","LIVAGT","0","N.A.","","0","Literature"
"amyloid","","","","LLYYTE","0","N.A.","","0.2","Amylhex"
"amyloid","","","","LSFSKD","0","N.A.","","0","Amylhex"
"amyloid","","","","LTVIIE","3.5","N.A.","","325.9","Amylhex"
"amyloid","","","","LVEALY","0","N.A.","","0","Amylhex"
"amyloid","LVFYQQ.png","1678.32","0","LVFYQQ","0","yes","LVFYQQ.png","0","Newcores"
"amyloid","","","","LYQLEN","0","N.A.","","0.6","Amylhex"
"amyloid","","","","MIENIQ","0","N.A.","","128.3","Literature"
"amyloid","","","","MIHFGN","0","N.A.","","0","Literature"
"amyloid","","","","MLVLFV","202.1","N.A.","","583.2","Literature"
"amyloid","","","","MMHFGN","0","N.A.","","0","Literature"
"amyloid","MTFIQN.png","1679","0.29","MTFIQN","0","yes","MTFIQN.png","0","Newcores"
"amyloid","","","","MTVIIE","0","N.A.","","237.8","Amylhex"
"amyloid","","","","MVGGVV","0","N.A.","","0","Literature"
"amyloid","","","","NFGAIL","0","N.A.","","50.3","Amylhex"
"amyloid","","","","NFGSVQ","0","N.A.","","0","Literature"
"amyloid","","","","NFLVH","0","N.A.","","0","Literature"
"amyloid","","","","NFLVHS","0","N.A.","","0","Literature"
"amyloid","","","","NHVTLS","0","N.A.","","0","Amylhex"
"amyloid","","","","NIFNFT","0","N.A.","","583.3","Literature"
"amyloid","","","","NIFNIT","0","N.A.","","591.5","Literature"
"amyloid","NIFWVQ.png","1680.03/1641.83","18.51","NIFWVQ","0","yes","NIFWVQ.png","0.2","Newcores"
"amyloid","","","","NINFFT","0","N.A.","","239.5","Literature"
"amyloid","","","","NINFIT","0","N.A.","","341.8","Literature"
"amyloid","NINKSN.png","1680/1645","0","NINKSN","0","yes","NINKSN.png","0","Lindquist"
"amyloid","NLFYQL.png","1679","197.18","NLFYQL","0","yes","NLFYQL.png","0.1","Newcores"
"amyloid","NNNWSL.png","1679.25/1644.43/1630.59","167.51","NNNWSL","0","yes","NNNWSL.png","0","Lindquist"
"amyloid","","","","NNQNTF","0","N.A.","","0","Literature"
"amyloid","","","","NNQQNY","0","N.A.","","0","Literature"
"amyloid","NNSGPN.png","1679.32/1642.83","5.05","NNSGPN","0","yes","NNSGPN.png","0","Functionals"
"amyloid","","","","NQFIIS","0","N.A.","","598.3","Literature"
"amyloid","NQFNLM.png","1679.53/1646.36","35.87","NQFNLM","0","yes","NQFNLM.png","42.8","Newcores"
"amyloid","","","","NQNNFV","0","N.A.","","504.1","Literature"
"amyloid","","","","NQQNQY","0","N.A.","","0","Literature"
"amyloid","","","","NTVIIE","0","N.A.","","374.1","Amylhex"
"amyloid","","","","NYCNFV","0","N.A.","","399.6","Literature"
"amyloid","","","","NYVWIV","10.7","N.A.","","599.8","Literature"
"amyloid","","","","QANKHI","0","N.A.","","0","Literature"
"amyloid","","","","QEMRHF","0","N.A.","","0","Literature"
"amyloid","QFFLQF.png","1679.1/1640.29","57.8","QFFLQF","0","yes","QFFLQF.png","0.5","Newcores"
"amyloid","QILLWS.png","1678.79/1643.35","188.95","QILLWS","0.8","yes","QILLWS.png","33.5","Newcores"
"amyloid","","","","QLENYC","0","N.A.","","88.6","Literature"
"amyloid","QLFINF.png","1678.58/1641.41","2.64","QLFINF","0","yes","QLFINF.png","0.1","Newcores"
"amyloid","QLFLQI.png","1678.47/1641/1606.91","5.17","QLFLQI","0","yes","QLFLQI.png","0","Newcores"
"amyloid","QNLLWQ.png","1677","137.24","QNLLWQ","0","yes","QNLLWQ.png","0.3","Newcores"
"amyloid","QTFLVN.png","1680.49","59.07","QTFLVN","0","yes","QTFLVN.png","0","Newcores"
"amyloid","","","","QTVIIE","0","N.A.","","248.8","Amylhex"
"amyloid","QYFEQF.png","1672.41/1648.28","0.13","QYFEQF","0","yes","QYFEQF.png","0","Newcores"
"amyloid","","","","QYGGNA","0","N.A.","","0","Literature"
"amyloid","","","","QYGGNN","0","N.A.","","0","Literature"
"amyloid","","","","RQVLIF","0","N.A.","","574.6","Literature"
"amyloid","","","","RTVIIE","0","N.A.","","33.4","Amylhex"
"amyloid","","","","RVFNIM","0","N.A.","","394.1","Literature"
"amyloid","SALALQ.png","1676.55/1638.09","4.58","SALALQ","0","yes","SALALQ.png","0","Functionals"
"amyloid","","","","SAVIIE","0.8","N.A.","","414.2","Amylhex"
"amyloid","","","","SDVIIE","0","N.A.","","411.7","Amylhex"
"amyloid","SELNIY.png","1679.48/1649.99","0","SELNIY","0","yes","SELNIY.png","52.9","Functionals"
"amyloid","","","","SEVIIE","0","N.A.","","253.3","Amylhex"
"amyloid","","","","SFFFIQ","31.4","N.A.","","568.2","Literature"
"amyloid","","","","SFLIFL","23.1","N.A.","","459","Literature"
"amyloid","","","","SFQIYA","0","N.A.","","582.2","Literature"
"amyloid","","","","SFVIIE","12.5","N.A.","","579.4","Amylhex"
"amyloid","","","","SGVIIE","0","N.A.","","57.6","Amylhex"
"amyloid","","","","SIVIIE","11.1","N.A.","","552.6","Amylhex"
"amyloid","","","","SLVIIE","5.6","N.A.","","486.4","Amylhex"
"amyloid","","","","SMVIIE","1.2","N.A.","","143.4","Amylhex"
"amyloid","","","","SMVLFS","1.5","N.A.","","154.4","Literature"
"amyloid","","","","SNQNNF","0","N.A.","","0","Literature"
"amyloid","","","","SNVIIE","0","N.A.","","83.4","Amylhex"
"amyloid","","","","SQFYIT","0","N.A.","","587","Literature"
"amyloid","","","","SQVIIE","0","N.A.","","556.2","Amylhex"
"amyloid","","","","SSNNFG","0","N.A.","","0.1","Literature"
"amyloid","","","","SSTNVG","0","N.A.","","0","Literature"
"amyloid","","","","SSTSAA","0","N.A.","","0","Literature"
"amyloid","","","","SSVIIE","0","N.A.","","36.4","Amylhex"
"amyloid","","","","STEIIE","0","N.A.","","1.7","Amylhex"
"amyloid","","","","STFIFE","0.7","N.A.","","69","Amylhex"
"amyloid","","","","STFIIE","0.6","N.A.","","123.4","Amylhex"
"amyloid","","","","STFLIE","0","N.A.","","71.5","Amylhex"
"amyloid","","","","STFTFE","0","N.A.","","2.6","Amylhex"
"amyloid","","","","STLIIE","0","N.A.","","6.5","Amylhex"
"amyloid","","","","STMSIT","0","N.A.","","0","Literature"
"amyloid","","","","STNIIE","0","N.A.","","3.5","Amylhex"
"amyloid","","","","STQIIE","0","N.A.","","8.9","Amylhex"
"amyloid","","","","STSIIE","0","N.A.","","2.7","Amylhex"
"amyloid","","","","STVEIE","0","N.A.","","1.4","Amylhex"
"amyloid","","","","STVFIE","0.7","N.A.","","37.3","Amylhex"
"amyloid","","","","STVIFE","0.7","N.A.","","67.9","Amylhex"
"amyloid","","","","STVIIA","1.3","N.A.","","404.2","Amylhex"
"amyloid","","","","STVIID","0.6","N.A.","","187.5","Amylhex"
"amyloid","","","","STVIIE","0.6","N.A.","","121.7","Amylhex"
"amyloid","","","","STVIIF","3","N.A.","","473.4","Amylhex"
"amyloid","","","","STVIIG","1.3","N.A.","","95.6","Amylhex"
"amyloid","","","","STVIII","2.3","N.A.","","209.8","Amylhex"
"amyloid","","","","STVIIL","1.3","N.A.","","350.2","Amylhex"
"amyloid","","","","STVIIM","1.3","N.A.","","454.3","Amylhex"
"amyloid","","","","STVIIN","1.3","N.A.","","533.6","Amylhex"
"amyloid","","","","STVIIQ","1.3","N.A.","","232.6","Amylhex"
"amyloid","","","","STVIIS","1.3","N.A.","","310.4","Amylhex"
"amyloid","","","","STVIIT","1.3","N.A.","","250.9","Amylhex"
"amyloid","","","","STVIIV","2.9","N.A.","","492","Amylhex"
"amyloid","","","","STVIIW","1.3","N.A.","","93.5","Amylhex"
"amyloid","","","","STVIIY","1.3","N.A.","","429.6","Amylhex"
"amyloid","","","","STVIYE","0","N.A.","","226.5","Amylhex"
"amyloid","","","","STVLIE","0","N.A.","","70.3","Amylhex"
"amyloid","","","","STVNIE","0","N.A.","","44.2","Amylhex"
"amyloid","","","","STVTIE","0","N.A.","","5.1","Amylhex"
"amyloid","","","","STVWIE","0","N.A.","","301","Amylhex"
"amyloid","","","","STVYIE","0","N.A.","","143.5","Amylhex"
"amyloid","","","","STWIFE","0","N.A.","","130.2","Amylhex"
"amyloid","","","","STWIIE","0","N.A.","","213.5","Amylhex"
"amyloid","","","","STWIYE","0","N.A.","","340.9","Amylhex"
"amyloid","","","","STWLIE","0","N.A.","","134.2","Amylhex"
"amyloid","","","","SVVIIE","11.7","N.A.","","404.5","Amylhex"
"amyloid","","","","SYSTMS","0","N.A.","","0","Literature"
"amyloid","","","","SYVIIE","4.2","N.A.","","523.9","Amylhex"
"amyloid","","","","TFQINS","0","N.A.","","0","Literature"
"amyloid","TIITVT.png","1639.38/1629.99","3.03","TIITVT","6.8","yes","TIITVT.png","0","Functionals"
"amyloid","","","","TTVIIE","0","N.A.","","261.8","Amylhex"
"amyloid","","","","TYVEYI","0","N.A.","","296.1","Literature"
"amyloid","","","","VAFNIT","0","N.A.","","543.9","Literature"
"amyloid","","","","VANFIT","0","N.A.","","93.2","Literature"
"amyloid","VAVHVF.png","1675.49/1624.85","21.43","VAVHVF","3.4","yes","VAVHVF.png","0","Sebset"
"amyloid","","","","VEALYL","0","N.A.","","96.1","Amylhex"
"amyloid","VFFNNT.png","1678.84/1643","5.66","VFFNNT","0","yes","VFFNNT.png","0","Newcores"
"amyloid","VIGIAQ.png","1679.23/1642.61/1653.95","35.01","VIGIAQ","0","yes","VIGIAQ.png","0","SOD1"
"amyloid","","","","VILLIS","62.8","N.A.","","496.3","Literature"
"amyloid","VIVATT.png","1679.2/1643.89","3.99","VIVATT","2.7","yes","VIVATT.png","1.2","Functionals"
"amyloid","VNVTQV.png","1678.48/1644.63/1637.64","43.56","VNVTQV","0","yes","VNVTQV.png","0","Functionals"
"amyloid","VQFLQS.png","1679.63/1643.71","228.32","VQFLQS","0","yes","VQFLQS.png","0.1","Newcores"
"amyloid","","","","VQIINK","0","N.A.","","0","Literature"
"amyloid","","","","VQIVYK","1.2","N.A.","","3.4","Amylhex"
"amyloid","","","","VSFEIV","0","N.A.","","29.8","Literature"
"amyloid","VSTTVV.png","1679.33/1642.86","1.64","VSTTVV","0","yes","VSTTVV.png","0","Functionals"
"amyloid","","","","VTSTFS","0","N.A.","","0.9","Literature"
"amyloid","","","","VTVIIE","4.6","N.A.","","329.7","Amylhex"
"amyloid","VVSTTV.png","1677.95/1650.75/1639.16","24.38","VVSTTV","0","yes","VVSTTV.png","0","Functionals"
"amyloid","","","","WIVIFF","426.2","N.A.","","591.7","Literature"
"amyloid","WPNVIT.png","1678.96/1647.55/1635.86","6.81","WPNVIT","0","yes","WPNVIT.png","0","Sebset"
"amyloid","WTFNLY.png","1679.31","123.3","WTFNLY","0","yes","WTFNLY.png","0.5","Newcores"
"amyloid","","","","WTVIIE","34.2","N.A.","","305.6","Amylhex"
"amyloid","","","","WVFWIG","281.5","N.A.","","554.5","Literature"
"amyloid","","","","YAELIV","0","N.A.","","339.9","Literature"
"amyloid","YIFNNC.png","1679.56/1639.27","45.63","YIFNNC","0","yes","YIFNNC.png","0","Newcores"
"amyloid","YLFLQY.png","1679.56/1639.27","34.29","YLFLQY","1.1","yes","YLFLQY.png","0.1","Newcores"
"amyloid","","","","YLLYYT","34","N.A.","","532.6","Literature"
"amyloid","","","","YLNWYQ","1.2","N.A.","","556.9","Literature"
"amyloid","YNNYNN.png","1679.24/1647.47","97.97","YNNYNN","0","yes","YNNYNN.png","0","Lindquist"
"amyloid","YQLIWQ.png","1678.63","162.39","YQLIWQ","1.5","yes","YQLIWQ.png","74","Newcores"
"amyloid","","","","YTVIIE","24.9","N.A.","","342.6","Amylhex"
"amyloid","","","","YVEYIG","0","N.A.","","65.3","Literature"
"amyloid","","","","YYQNYQ","0","N.A.","","483.6","Literature"
