0610195A;SVLTQPPSASGVPGQSVIISCSGSSSNIGRNTVNWYQQVPGAAPKLLVYSNNQWPSGVPDRFSGSKSGTSASLAISGLHSEDEADYFCATWDDSLDGPVFGGGTKLTVLGQPKAAPSVTLFPPSSEELQANKATLVCLISDFYPGAVTVAWKADSSPVKAGVETTTPSKZSBBKYAASSYLSLTPEQWKSHRSYSCZVTHZGSTVZKTVAPTECS;IGLV1-44*01
0709220A;IQMTQSPSTLSASVGDRVTITCRTSQSISRWLAWYQQKPGEAPKVLIYGASNLESGVPSRFSGSGSGTEFTLTISSLQSDDFATYYCQQYDSFPYTFGQGTKLEIKRTVAAPSVFIFPPSDEQLKSGTASVVCLLDDFYPREAKVQWKVDNALQSGNSQESVTEQDSKDSTYSLSSTLTLSKADYEKHKVYACEVTHQGLSSPVTKSFNRGEC;IGKV1-5*01
1002833A;FMLTQPHSVSESPGKTVIISCTRSDGTIAGYYVQWYQQRPGRAPTTVIFEDTQRPSGVPDRFSGSIDRSSNSASLTISGLQTEDEADYYCQSYDRDHWVFGGGTKLTVLGQPK;IGLV6-57*01
1006259A;YELTQPPSVSVSPGQTARITCSGDALPAEYAYWYQQKPGQAPVMVIYETNKRPSGIPERFSGSTSGTTVTLTISGVQAEDEADYYCSSADSSQGMVFGGGTKLTVLGQPK;IGLV3-25*03
1006259B;SVLTQPPSASGTSGQRVTISCSGSSSNLGSNQVNWYRHLPGTAPKLVIYSDSQRPSGVPDRISASKSGTSASLAISGLQSEDESDYYCASWDDSLDGPVFGGGTKVTVLGQPK;IGLV1-44*01
1006259C;SVLTQPPSASGTPGQRVTISCSGSSSNIGETNSVSWYQHLPGTAPKLLIYEDNSRASGVSDRFSASKSGTSASLAISGLQPEDETDYYCAAWDDSLDVAVFGTGTKVTVLGQPK;IGLV1-36*01
1006259D;SALTQPASVSGSPGQSITISCTGTSSDVGGYNYVSWFQQHPGKAPKLMIFDVSERPSGVSDRFSGSKSGNTASLTISGLQAEDEADYYCSSYAGSNTVIFGGGTKLTVLGQPK;IGLV2-11*02
1006259E;SVLTQPPSASGTPGQRVTISCSGSGSNIGSHTVNWYHQFPGTAPKLLIYRNDQRPSGVPDRFSGSKSGTSASLAISGLQSEDEADYYCAAWDDSLDGPVFGGGTKLTVLGQPK;IGLV1-44*01
1103183A;SVLTQPPSASGTPGQRVTISCSGSTSNIGSNTVTWYQHLPGTAPKLLIYSNDQRPSGVPHRFSGSKSGASASLAISGLQSEDETDYYCATWDDSLNGPVFGGGTKVTVQGQPKKS;IGLV1-36*01
1203309A;FMLTQPHSVSESPGKTVTISCTRSSGSIASYYVQWYQLRPGSAPTTVIYEDNQRPSGVPDRFSGSIDRSSNSASLTVSELKTEDEADYYCQSYDSNNWVFGGGTKLTVLGQPKAAPSVTLFPPSSEELQANKATLVCLISDFYPGAVTVAWKADSSPVKAGVETTTPSKQSNNKYAASSYLSLTPEQWKSHKSYSCQVTHEGSTVEKTVAPTECS;IGLV6-57*01
1303369A;TFYELTQPPSVSLSAGQTAMITCSGDALGDKDVHWYQQKPGQSPVLVIYQDNKRPSGIPERFSGSNSGNTASLTVSRVEAGDEADYFCQAWDNGSYEVVFGGGTKVTVLGQPK;IGLV3-9*02
1B0W_A;IQMTQSPSSLSASVGDRVTITCQASQDISDYLIWYQQKLGKAPNLLIYDASTLETGVPSRFSGSGSGTEYTFTISSLQPEDIATYYCQQYDDLPYTFGQGTKVEIKR;IGKV1D-33*01
1B6D_A;IQMTQSPSSLSASVGDRVTITCQASQDISSYLNWYQQKPGKAPKLLIHAASSLETGVPSRFSGSGSGTDFSFTISSLQPEDLATYYCQQYDSLPLTFGGGTKVEIKRTVAAPSVFIFPPSDEQLKSGTASVVCLLNNFYPREAKVQWKVDNALQSGNSQESVTEQDSKDSTYSLSSTLTLSKADYEKHKVYACEVTHQGLSSPVTKSFNRG;IGKV1D-33*01
1BJM_A;SVLTQPPSASGTPGQRVTISCSGSSSNIGENSVTWYQHLSGTAPKLLIYEDNSRASGVSDRFSASKSGTSASLAISGLQPEDETDYYCAAWDDSLDVAVFGTGTKVTVLGQPKANPTVTLFPPSSEELQANKATLVCLISDFYPGAVTVAWKADGSPVKAGVETTKPSKQSNNKYAASSYLSLTPEQWKSHRSYSCQVTHEGSTVEKTVAPTECS;IGLV1-36*01
1CD0_A;FMLNQPHSVSESPGKTVTISCTRSSGNIDSNYVQWYQQRPGSAPITVIYEDNQRPSGVPDRFAGSIDRSSNSASLTISGLKTEDEADYYCQSYDARNVVFGGGTRLTVLG;IGLV6-57*01
1DCL_A;SALTQPPSASGSLGQSVTISCTGTSSNVGGYNYVSWYQQHAGKAPKVIIYEVNKRPSGVPDRFSGSKSGNTASLTVSGLQAEDEADYYCSSYEGSDNFVFGTGTKVTVLGQPKANPTVTLFPPSSEELQANKATLVCLISDFYPGAVTVAWKADGSPVKAGVETTKPSKQSNNKYAASSYLSLTPEQWKSHRSYSCQVTHEGSTVEKTVAPTECS;IGLV2-8*01
1DCL_B;SALTQPPSASGSLGQSVTISCTGTSSNVGGYNYVSWYQQHAGKAPKVIIYEVNKRPSGVPDRFSGSKSGNTASLTVSGLQAEDEADYYCSSYEGSDNFVFGTGTKVTVLGQPKANPTVTLFPPSSEELQANKATLVCLISDFYPGAVTVAWKADGSPVKAGVETTKPSKQSNNKYAASSYLSLTPEQWKSHRSYSCQVTHEGSTVEKTVAPTECS;IGLV2-8*01
1EK3_A;IVMTQSPDSLAVSPGERATINCKSSQNLLDSSFDTNTLAWYQQKPGQPPKLLIYWASSRESGVPDRFSGSGSGTDFTLTISSLQAEDVAVYYCQQYYSTPPTFGGGTKVEIKR;IGKV4-1*01
1HEZ_A;IQMTQSPSSLSASVGDRVTITCRTSQSISSYLNWYQQKPGKAPKLLIYAASSLQSGVPSRFSGSGSGTDFTLTISSLQPEDFATYYCQQSYSTPRTFGQGTKVEIKRTVAAPSVFIFPPSDEQLKSGTASVVCLLNNFYPREAKVQWKVDNALQSGNSQESVTEQDSKDSTYSLSSTLTLSKADYEKHKVYACEVTHQGLSSPVTKSFNRGEC;IGKV1D-39*01
1LGV_A;TALTQPASVSGSPGQSITVSCTGVSSIVGSYNLVSWYQQHPGKAPKLLTYEVNKRPSGVSDRFSGSKSGNSASLTISGLQAEDEADYYCSSYDGSSTSVVFGGGTKLTVLGQPKAAPSVTLFPPSSEELQANKATLVCLISDFYPGAVTVAWKADSSPVKAGVETTKPSKQSNNKYAASSYLSLTPEQWKSHRSYSCQVTHEGSTVEKTVAPTAC;IGLV2-23*02
1LIL_A;SPGQTARITCSGEKLGDAYVCWYQQRPGQSPVVVIYQDNRRPSGIPERFSGSSSGNTATLTISGTQTLDEADYYCQVWDSNASVVFGGGTKLTVLGQPKAAPSVTLFPPSSEELQANKATLVCLISDFYPGAVTVAWKADSSPVKAGVETTTPSKQSNNKYAASSYLSLTPEQWKSHRSYSCQVTHEGSTVEKTVAPTECS;IGLV3-1*01
1QP1_A;IQMTQSPSSLSASVGDRVTITCQASQDISDYLIWYQQKLGKAPNLLIYDASTLETGVPSRFSGSGSGTEYTFTISSLQPEDIATYYCQQYDDLPYTFGQGTKVEIK;IGKV1D-33*01
1REI_A;IQMTQSPSSLSASVGDRVTITCQASQDIIKYLNWYQQTPGKAPKLLIYEASNLQAGVPSRFSGSGSGTDYTFTISSLQPEDIATYYCQQYQSLPYTFGQGTKLQIT;IGKV1D-33*01
1REI_B;IQMTQSPSSLSASVGDRVTITCQASQDIIKYLNWYQQTPGKAPKLLIYEASNLQAGVPSRFSGSGSGTDYTFTISSLQPEDIATYYCQQYQSLPYTFGQGTKLQIT;IGKV1D-33*01
1WTL_A;IQMTQSPSSLSASVGDRVTITCRASQDITNYVNWFQQRPGQAPKVLIYGASILETGVPSRFSGSGSGTDFTFTISSLQPEDIATYYCQQYDTLPLTFGGGTKVDIKR;IGKV1D-33*01
1WTL_B;IQMTQSPSSLSASVGDRVTITCRASQDITNYVNWFQQRPGQAPKVLIYGASILETGVPSRFSGSGSGTDFTFTISSLQPEDIATYYCQQYDTLPLTFGGGTKVDIKR;IGKV1D-33*01
2CD0_A;FLLTQPHSVSESPGKTVTISCTRSSGSIANNYVHWYQQRPGSSPTTVIFEDDHRPSGVPDRFSGSVDTSSNSASLTISGLKTEDEADYYCQSYDHNNQVFGGGTKLTVLG;IGLV6-57*01
2MCG_1;SALTQPPSASGSLGQSVTISCTGTSSDVGGYNYVSWYQQHAGKAPKVIIYEVNKRPSGVPDRFSGSKSGNTASLTVSGLQAEDEADYYCSSYEGSDNFVFGTGTKVTVLGQPKANPTVTLFPPSSEELQANKATLVCLISDFYPGAVTVAWKADGSPVKAGVETTKPSKQSNNKYAASSYLSLTPEQWKSHRSYSCQVTHEGSTVEKTVAPTECS;IGLV2-8*01
2MCG_2;SALTQPPSASGSLGQSVTISCTGTSSDVGGYNYVSWYQQHAGKAPKVIIYEVNKRPSGVPDRFSGSKSGNTASLTVSGLQAEDEADYYCSSYEGSDNFVFGTGTKVTVLGQPKANPTVTLFPPSSEELQANKATLVCLISDFYPGAVTVAWKADGSPVKAGVETTKPSKQSNNKYAASSYLSLTPEQWKSHRSYSCQVTHEGSTVEKTVAPTECS;IGLV2-8*01
2OMB_A;SALPQPASVSGSPGQSITISCTGTSSDVGGYDLVSWYQHHPGGAPKLIIYEVTNRPSGVSDRFSGSKSGNTASLTISGLQAEDEADYYCSSYASGSTPRIFGGGTRLTVLGQPKAAPSVTLFPPSSEELQANKATLVCLISDFYPGAVTVAWKADSSPVKAGVETTTPSKQSNNKYAASSYLSLTPEQWKSHRSYSCQVTHEGSTVEKTVAPTECS;IGLV2-11*02
2RHE_A;SVLTQPPSASGTPGQRVTISCTGSATDIGSNSVIWYQQVPGKAPKLLIYYNDLLPSGVSDRFSASKSGTSASLAISGLESEDEADYYCAAWNDSLDEPGFGGGTKLTVLGQPK;IGLV1-36*01
3BJL_A;SVLTQPPSASGTPGQRVTISCSGSSSNIGENSVTWYQHLSGTAPKLLIYEDNSRASGVSDRFSASKSGTSASLAISGLQPEDETDYYCAAWDDSLDVAVFGTGTKVTVLGQPKANPTVTLFPPSSEELQANKATLVCLISDFYPGAVTVAWKADGSPVKAGVETTKPSKQSNNKYAASSYLSLTPEQWKSHRSYSCQVTHEGSTVEKTVAPTECS;IGLV1-36*01
3BJL_B;SVLTQPPSASGTPGQRVTISCSGSSSNIGENSVTWYQHLSGTAPKLLIYEDNSRASGVSDRFSASKSGTSASLAISGLQPEDETDYYCAAWDDSLDVAVFGTGTKVTVLGQPKANPTVTLFPPSSEELQANKATLVCLISDFYPGAVTVAWKADGSPVKAGVETTKPSKQSNNKYAASSYLSLTPEQWKSHRSYSCQVTHEGSTVEKTVAPTECS;IGLV1-36*01
3MCG_1;SALTQPPSASGSLGQSVTISCTGTSSDVGGYNYVSWYQQHAGKAPKVIIYEVNKRPSGVPDRFSGSKSGNTASLTVSGLQAEDEADYYCSSYEGSDNFVFGTGTKVTVLGQPKANPTVTLFPPSSEELQANKATLVCLISDFYPGAVTVAWKADGSPVKAGVETTKPSKQSNNKYAASSYLSLTPEQWKSHRSYSCQVTHEGSTVEKTVAPTECS;IGLV2-8*01
4BJL_A;SVLTQPPSASGTPGQRVTISCSGSSSNIGENSVTWYQHLSGTAPKLLIYEDNSRASGVSDRFSASKSGTSASLAISGLQPEDETDYYCAAWDDSLDVAVFGTGTKVTVLGQPKANPTVTLFPPSSEELQANKATLVCLISDFYPGAVTVAWKADGSPVKAGVETTKPSKQSNNKYAASSYLSLTPEQWKSHRSYSCQVTHEGSTVEKTVAPTECS;IGLV1-36*01
4BJL_B;SVLTQPPSASGTPGQRVTISCSGSSSNIGENSVTWYQHLSGTAPKLLIYEDNSRASGVSDRFSASKSGTSASLAISGLQPEDETDYYCAAWDDSLDVAVFGTGTKVTVLGQPKANPTVTLFPPSSEELQANKATLVCLISDFYPGAVTVAWKADGSPVKAGVETTKPSKQSNNKYAASSYLSLTPEQWKSHRSYSCQVTHEGSTVEKTVAPTECS;IGLV1-36*01
751419A;IQMTQSPSSLSASVGDRVTITCQASQDIIKYLNWYQQTPGKAPKLLIYEASNLQAGVPSRFSGSGSGTDYTFTISSLQPEDIATYYCQQYQSLPYTFGQGTKLQITRTVAAPSVFIFPPSBZZLKSGTASVVCLLBBFYPREAKVQWKVBBALZSGBSZZSVTZZBSKDSTYSLSSTLTLSKADYEKHKLYACEVTHQGLSSPVTKSFNRGEC;IGKV1D-33*01
751423A;IVMTQSPNSLAVSLGERATINCKSSQSVLYSSNSKNYLAWYQQKPGQPPKLLIYWASTRESGVPDRFSGSGSGTDFTLTISSLQAEDVAVYYCQQYYSTPYSFGQGTKLEIKRTVAAPSVFIFPPSBZZLKSGTASVVCLLNNFYPREAKVQWKVBBALZSGBSZZSVTZZBSKBSTYSLSSTLTLSKADYEKHKVYACZVTHZGLSSPVTKSFNRGEC;IGKV4-1*01
752860A;SVLTQPPSASGTPGQRVTISCSGGNFDIGRNSVNWYQVHPGTAPRLLIYSSDQRSSGVPDRFSGSKSGTSASLAISGLQSENEADYFCATWDDSLDGPVFGGGTKVTVLG;IGLV1-36*01
96-100;IQMTQSPSSLSASVGDRVTITCQASQDIINYVNWYQQKPGKAPKVLVYDASKLETGVPSRFSGSGSGTDFTFTISSLQPEDIATYYCQQYENLPLTFGGGTKVEIKRTVAAPSVFIFPPSDEQLKSGTASVVCLLNNFYPREAKVQWKVDNALQSGNSQESVTEQDSKDSTYSLSSTLTLSKADYEKHKVYACEVTHQGLSSPVTKSFNRGEC;IGKV1D-33*01
A29700;DASVTLGITGLQTGDEADYYCGTWDSSLSAAVFGGGTKLTVLGQPK;IGLV1-51*02
A42193;SVLTQPPSASGTPGQRVTISCSGSSSNIGSNVVTWYQQLPGTAPKLLIYTNNQRPSGVPGRFSGSKSGTSASLAVSGLQSEDEADYYCATWDDSVNGWVFGGGTKLTVLGQPKAAPSVTLFPPSSEELQANKATLVCLISDFYPGAVTVAWKADSSPVKAGVETTTPSKQSNNKYAASSYLSLTPEQWKSHKSYSCQVTHEGSTVEKTVAPTECS;IGLV1-44*01
AAB20217;IVMTQSPGTLSVSPGERATLSCRASQSVSYNLAWYQQKPGQAPRLLIYSTSIRATGIPARFSGSGSETEFTLTISILQSEDFAVYYCQHYEDWPRTFGQGTKLEIKRTVAAPSVFIFPPSDEQLKSGTASVVCLLNNFYPREAKVQWKVDNALQSGNSQESVTEQDSKDSTYSLSSTLTLSKADYEKHKVYACEVTHQGLSSPVTKSFNRGEC;IGKV3D-15*01
AAB31507;SQLELTQPPSASASLGASVKVTCTLSRGYDSYAIAWHQQQPERGLRYLMKINSDGSHTRGDAIPDRFSGSSSGTERILTISSLQSEDEADYYCQTWGSDIQVFGGGTRLTVLGQPK;IGLV4-69*02
AAB32279;IQMTQSPSSLSASIGDYVTITCQARQAIIDYLNWYQQWPGRAPWCLIY;IGKV1D-33*01
P01593;IQMTQSPSSLSASVGDRVTITCQASQDINHYLNWYQQGPKKAPKILIYDASNLETGVPSRFSGSGFGTDFTFTISGLQPEDIATYYCQQYDTLPRTFGQGTKLEIKR;IGKV1D-33*01
P01594;IQMTQSPSSLSASVGDRVTITCQASQDISDYLNWYQQKPGKAPKLLIYDASNLESGVPSRFSGGGSGAHFTFTISSLQPEDIATYYCQQYDYLPWTFGQGTKVEIKR;IGKV1D-33*01
P01595;IQMTQSPSPLSASVGDSVTITCQASQDIRNSLIWYQQKPGKAPKFLIYDAENLEIGVPSRFRGSGSGTDFALSISSLQPEDFATYYCQQYYNLPYTFGQGTKLEIKR;IGKV1D-33*01
P01596;IQMTQSPSTLSASVGDRVAITCRASQNISSWLAWYQQKPGKAPKVLIYKSSSLESGVPSRFSGSGSGTDFTLTISSLZPBBFATYYCQQYNTFFTFGPGTKVDIKR;IGKV1-5*03
P01597;IZMTQSPSSLSASVGDRVTITCRAGQSVNKYLNWYQQKPGKAPKVLIFAASSLKSGVPSRFSGSGSGTDFTLTISGLLPEDFATYYCQQSYTTPYTFGPGTKVEMTR;IGKV1D-39*01
P01598;IQMTQSPSTLSASVGDRVTITCRASQSINTWLAWYQQKPGKAPKLLMYKASSLESGVPSRFIGSGSGTEFTLTISSLQPDDFATYYCQQYNSDSKMFGQGTKVEVKG;IGKV1-5*03
P01599;IQMTQSPSSLSASVGDRVTIICRASQGIRNDLTWYQQKPGKAPKELIYAASNLQSGVPSRFSGSGAGTEFTLTISSLQPEDFATYYCLQQNSYPRSFGQGTKVEIKR;IGKV1-17*02
P01600;IQMTQSPSSLSASVGDRVTITCRASQSISSYLSWYQQKPGKAPQVLIYAASSLPSGVPSRFSGSGSGTDFTLTISSLQPEDFATYYCQQNYITPTSFGQGTRVEIKR;IGKV1D-39*01
P01603;IQMTQSPSTLSVSVGDRVTITCEASQTVLSYLNWYQQKPGKAPKLLIYAASSLETGVPSRFSGQGSGTBFTFTISSVZPZBFATYYCQZYLDLPRTFGQGTKVDLKR;IGKV1D-33*01
P01604;IQMTQSPSTQPASVGDRVTITCRASQSINIWLAWYQQKPEKAPKLLIYKASTLETGVPSRFSGSGSGTEFTLTINSLQPDDFATYYCQQYSRYPYTFGQGTKLDIKR;IGKV1-5*03
P01605;IQMTQSPSSLSVSVGDRVTITCQASQNVNAYLNWYQQKPGLAPKLLIYGASTREAGVPSRFSGSGSGTDFTFTISSLQPEDIATYYCQQYNNWPPTFGQGTKVEVKR;IGKV1D-33*01
P01606;IQMTZSPSSLSASVGBRVTITCRASZTISSYLBWYZZKPGKAPBLLIYAASBLHSGVPSRFSGSGSGTBFTFTISSLZPZBFATYYCZZSYSSPTTFGZGTRLZIKR;IGKV1D-33*01
P01608;IQMTQSPSSLSASVGDRVTITCQASQDISIFLNWYQQKPGKAPKLLIYDASKLEAGVPSRFSGTGSGTDFTFTISSLQPEDIATYYCQQFDNLPLTFGGGTKVDFKR;IGKV1D-33*01
P01609;IQMTQSPSSLSASVGDRVTITCQASQDIRKHLNWYDQKPGKAPRLLIYGASTLETGVPSRFSGSGSGTDFTLTISTLQPEDIGNYYCQQYDNVPITFGQGTRVENKG;IGKV1D-33*01
P01610;IQMTQSPSSLSASVGDRVTITCRASQGIRNDLTWYQQKPGTAPKRLIYGATSLQSGVPSRFSGSGSGTEFTLTINSLQPEDFATYYCLQYSSFPWTFGQGTKVEVKR;IGKV1-17*02
P01611;IQMTQSPSSVSASVGDRVTITCRASQDISHWLAWYQQKSGKAPKLLIYSASSLENGVPSRFSGSGSGTEFTLTISSLQPEDFATYFCQQAHSVPLTFGGGTTVDIKR;IGKV1D-12*02
P01612;VQMTQSPSSLSASVGDRVIITCRASQSSVDYLNWYQQKPGKAPKLLIFDTSNLQSGVPSRFSGGRSGTDFTLTISSLQPDDFATYYCQQSYTNPEVTFGGGTTVDIKR;IGKV1D-39*01
P01613;IQMTQSPSSLSATVGDRVTLLCEASQSVLESGNTFLAWYQQKPKKAPKLLIYDASNLETGVPSRFSESGSGTDFTFTISGLZPZBFAVYYCQZYDTLPSTFGVASKVESKR;IGKV1D-33*01
P01614;DIVMTQTPLSLPVTPGEPASISCRSSQSLLDSGDGNTYLNWYLQKAGQSPQLLIYTLSYRASGVPDRFSGSGSGTDFTLKISRVQAEDVGVYYCMQRLEIPYTFGQGTKLEIRR;IGKV2D-40*01
P01615;VVMTQSPLFLPVTLGEPASIQCRSSQSLVYRBGBTYLBWYLQKPGQSPELLIYLSSYRDSGVPDRFSDSGSGTDFTLKITRVQAEDVGVYYCMQATZSPYTFGQGTKLZIKR;IGKV2-30*01
P01616;IVLTQSPLSLPVTPGEPASISCRSSQNLLZSBGBYLDWYLZKPGZSPZLLIYLGSNRASGVPNRFSGSGSGTBFTLKISRVZAZBVGVYYCMQALQTPLTFGGGTNVEIKR;IGKV2D-28*01
P01617;IVMTQSPLSLPVTPGEPASISCRSSQSLLHSDGFDYLNWYLQKPGQSPZLLIYALSNRASGVPDRFSGSGSGTDFTLKISRVEAEDVGVYYCMZALQAPITFGQGTRLEIKR;IGKV2D-28*01
P01619;IVLTZSPGTLSLSPGZRAALSCRASQSLSGNYLAWYQQKPGQAPRLLMYGVSSRATGIPDRFSGSGSGADFTLTISRLZPEDFAVYYCQQYGSSPFTFGQGSKLEIK;IGKV3-20*01
P01620;IVLTQSPGTLSLSPGERATLSCRASQSVSNSYLAWYQQKPGQAPRLLIYGASSRATGIPDRFSGSGSGTDFTLTISRLEPDDFAVYYCQQYGSSPQTFGQGSKVEIKR;IGKV3-20*01
P01621;PSGEIVLTQSPGTLSLSPGERATLSCRASQSVSSSYLAWYQQKPGQAPRLLIYGATSRATGIPDRFSGSASGTDFTLTISRLEPEDFAVYYCQQYGNSQ;IGKV3-20*01
P01622;IVLTQSPGTLSLSPGERATLSCRASQSVSNSFLAWYQQKPGQAPRLLIYVASSRATGIPDRFSGSGSGTDFTLTISRLEPEDFAVYYCQQYGSSPSTFGQGTKVELKR;IGKV3-20*01
P01623;IVLTQSPGTLSLSPGERATLSCRASQSVSSGYLGWYQQKPGQAPRLLIYGASSRATGIPDRFSGSGSGTDFTLTISRLEPEDFAVYYCQQYGSLGRTFGQGTKVEIKR;IGKV3-20*01
P01624;IVMTQSPVTLSVSPGERATLSCRASQSISNSYLAWYQQKPSGSPRLLIYGASTRATGIPARFSGSGSGTEFTLTISSLQSEDFAVYYCQQYNNWPPTFGQGTRVEIKR;IGKV3D-15*01
P01625;IVMTQSPDSLAVSLGERATINCKSSQSVLYSSNSKNYLAWYQQKPGQPPKLLIYWASTRESGVPDRFSGSGSGTDFTLTISSLQAEDVAVYYCQQYYSTPYSFGQGTKLEIKR;IGKV4-1*01
P01699;SVLTQPPSASGTPGQRVTISCSGGNFDIGRNSVNWYQVHPGTAPRLLIYSSDQRSSGVPDRFSGSKSGTSASLAISGLQSENEADYFCATWDDSLDGPVFGGGTKVTVLG;IGLV1-36*01
P01700;SVLTQPPSVSGTPGQRVTISCSGGSSNGTGNNYVYWYQQLPGTAPKLLIYRDDKRPSGVPDRFSGSKSGTSASLAISGLRSEDEAHYHCAAWDYRLSAVVFGGGTQLTVLR;IGLV1-47*01
P01701;SVLTQPPSVSAAPGQKVTISCSGGSTNIGNNYVSWHQHLPGTAPKLLIYEDNKRPSGIPDRISASKSGTSATLGITGLRTGDEADYYCATWDSSLNAVVFGGGTKVTVLG;IGLV1-51*02
P01702;SVLTQPPSVSAAPGQEVTISCSGSSSNIGDNFVSWYQQLPGTAPKLLIYDNNKRPSGIPDRFSGSKSGTSATLGITGLQTGDEADYYCGTWDSSLSVGMFGGGTRVTVLG;IGLV1-51*01
P01703;SVLTQPPSVSGAPGQRVTISCTGSSSNIGAGNHVKWYQQLPGTAPKLLIFHNNARFSVSKSGSSATLAITGLQAEDEADYYCQSYDRSLRVFGGGTKLTVLR;IGLV1-40*01
P01704;SALTQPASVSASPGQSITISCTGTTNDIGSYSYVSWYQQYPGKAPKVLIFDVNSRPSGVSHRFSGSKSGNTASLTISGLQAEDEAHYFCSSYRTSGTIIFGGGTYVTVLR;IGLV2-11*02
P01705;SALTQPASVSGSPGQSITISCTGTTSDVGSYNFVSWYQQNPGKAPKLMIYEGNKRPSGVSNRFSGSKSGKTASLTISGLQVEDEADYYCCSYAGNSTRVFGGGTRVTVLS;IGLV2-23*01
P01706;SALTQPRSVSGSPGQSVTISCAGTSSDVGGNHFVSWYQQHPGKAPKLIIYGVNKRPSGVPYRFSGSKSGNTASLTISGLQAEDEAHYYCCSYAGRFTWVFGGGTNLTVLG;IGLV2-11*02
P01707;SALTQPRSVSGSPGQSVTISCTGTSSDVGAYNSVSWYQQHPGKAPKLMIFDVTKRPSGVPDRLSGSKSGDTASLTISGLRADDEADYYCCSYAGRYSVIFGGGTKLTVLG;IGLV2-11*02
P01708;SALTQPRSVSGSPGHSVTISCIGTSSNVGDYKYVSWYQQHPGKAPKLIIYEVSSRPSGVPDRFSGSKSGNTASLTISGLQAEDEADYYCCSYIGSYVFGTGTKVIVLG;IGLV2-11*02
P01709;SALTQPPSASGSLGQSVTISCTGTSSDVGGYNYVSWYQQHAGKAPKVIIYEVNKRPSGVPDRFSGSKSGNTASLTVSGLQAEDEADYYCSSYEGSDNFVFGTGTKVTVLG;IGLV2-8*01
P01710;SALTQPPSASGSPGQSVTISCTGTSSDVGDNKYVSWYQQHPGRAPKLVIFEVSQRPSGVPDRFSGSKSDNTASLTVSGLRAEDEADYYCSSYVDNNNFVFGGGTKLTVLR;IGLV2-8*02
P01711;SALTQPASVSGSLGQSITISCTGTSSDVGGYNYVSWFQQHPGTAPKLIISEVRNRPSGVSDRFSGSKSANTASLTISGLQAEDEADYYCSSYTSSNSVVFGGGTKLTVLG;IGLV2-11*02
P01712;SALTQPPRVSGSPGQSVTISCTGSYSNVTGYNHVSWYQQDPGKVPKLMIYDVDKRPSGVPDRFSGSKSANTASLTISGLQANNEADYYCSSYGGTYSLIFGGGTKLTVLG;IGLV2-11*02
P01713;SALTQPRSVSGSPGQSLTISCSGAPCDVDGCESVSWYQQHPGKAPKLIIYGFSNRPSGVPLRFSGSKSGDAASLTISGLQVEDEADYYCSSYADSSVIFGAGTKLTVLRZPKAAPSVTLFPPSSEELQANKATLVCLISDFYPGAVTVAWKADSSPVKAGVETTTPSKZSBBKYAASSYLSLTPEQWKSHRSYSCQVTHEGSTVEKTVAPTECS;IGLV2-11*02
P01714;GHTASLTITGAQAEDEADYYCNSRDSSGKHVLFGGGTKLTVLG;IGLV3-19*01
P01715;SPGQTASITCSGDKLGEQYVCWYQQKPGQSPVLVIYHDSKRPSGIPERFSGSNSGTTATLTISGTQAMDEADYYCQAWDSYTVIFGGGTKLTVLG;IGLV3-1*01
P01716;SPGQTASITCSGDKLGDKDVCWYQQRPGQSPVLVIYQDNQRSSGIPERFSGSNSGNTATLTISGTQAMDEADYYCQAWDSMSVVFGGGTRLTVLS;IGLV3-1*01
P01717;YELTQPPSVSVSPGQTARITCSANALPNQYAYWYQQKPGRAPVMVIYKDTQRPSGIPQRFSSSTSGTTVTLTISGVQAEDEADYYCQAWDNSASIFGGGTKLTVLG;IGLV3-25*02
P01718;GATATLTISGAQSVDEADYFCQTWDTITAIFGGGTKLTVLS;IGLV3-1*01
P01719;GNTAALTISRVEAGDEADYYCEVWDDRTAHVVFGGGTKLTVLG;IGLV3-21*02
P01721;FMLTQPHSVSESPGKTVTFSCTGSGGSIADSFVQWYQQRPGSAPTTVIYDDNQRPSGVPDRFSGSIDDSANSASLTISGLKTEDEADYYCQSYNSNHHVVFGGGTKVTVLG;IGLV6-57*01
P01722;LMLIQPPSVSESPGKTVTMSCTRTSDSIASNYVQWYRQRPGGAPTTLIYDTNQRPYGVPNRFSGSFDSSSNSASLTISGLTNDDTAMYFCQSYDSSNLWVFGGGTKLTVLS;IGLV6-57*01
P04209;SALTQPASVSGSPGQSITISCTGTTSDVGGYDFVSWYQQHPGKAPKLLIYDVNSRPSGISNRFSGSKSGNTASLTISGLQAEDEADYYCSSFTTTNSRAVFGGGTKLSVLG;IGLV2-11*02
P06888;SVLTQPPSLSAAPGQRVSISCSGSSSNIGKNYVDWYQQLPGTAPKLLIFNNNKRPSGIPDRFSGSKSGTSATLGITGLQTGDEAIYYCGTWDNRRSVFGGGTNVTVVG;IGLV1-51*01
P80362;IQMTQSPSSLSASVGDRVTITCRASQDITNYVNWFQQRPGQAPKVLIYGASILETGVPSRFSGSGSGTDFTFTISSLQPEDIATYYCQQYDTLPLTFGGGTKVDIKR;IGKV1D-33*01
S02083;GNTASLTITGARAEDEADYYCNSRNSSGNYHVIFGGGTKLTVLSQPKAAPSVTLFPPSSEELQANKATLVCLISDFYPGAV;IGLV3-19*01
S03876;IVLTQSPLSLPVTPGEPASISCKSSQSLMHSSGDNYLDWYLQKPGQSPQIVIYLGSNRASGVPDTFSGSGSGTDFTLLISSVGAEDVGVYYCMQALQTPWTFGQGTKVGIKRTVAAPSVFIFP;IGKV2D-28*01
