yourlist:M201905296746803381A1F0E0DB47453E0216320D193C02Q	Entry	Entry name	Status	Protein names	Protein families
P01834	P01834	IGKC_HUMAN	reviewed	Immunoglobulin kappa constant (Ig kappa chain C region) (Ig kappa chain C region AG) (Ig kappa chain C region CUM) (Ig kappa chain C region EU) (Ig kappa chain C region OU) (Ig kappa chain C region ROY) (Ig kappa chain C region TI)	
Q6PJG0	Q6PJG0	Q6PJG0_HUMAN	unreviewed	Uncharacterized protein	
P0DOY3	P0DOY3	IGLC3_HUMAN	reviewed	Immunoglobulin lambda constant 3 (Ig lambda chain C region DOT) (Ig lambda chain C region NEWM) (Ig lambda-3 chain C regions)	
P01594,P01603	P01594	KV133_HUMAN	reviewed	Immunoglobulin kappa variable 1-33 (Ig kappa chain V-I region AU) (Ig kappa chain V-I region Ka)	
P01596,P01598,P01604	P01602	KV105_HUMAN	reviewed	Immunoglobulin kappa variable 1-5 (Ig kappa chain V-I region CAR) (Ig kappa chain V-I region EU) (Ig kappa chain V-I region HK102) (Ig kappa chain V-I region Kue)	
P01599,P01610	P01599	KV117_HUMAN	reviewed	Immunoglobulin kappa variable 1-17 (Ig kappa chain V-I region Gal) (Ig kappa chain V-I region WEA)	
P01611	P01611	KVD12_HUMAN	reviewed	Immunoglobulin kappa variable 1D-12 (Ig kappa chain V-I region Wes)	
P01597,P01600,P01606,P01612	P01597	KV139_HUMAN	reviewed	Immunoglobulin kappa variable 1-39 (Ig kappa chain V-I region DEE) (Ig kappa chain V-I region Hau) (Ig kappa chain V-I region Mev) (Ig kappa chain V-I region OU) (Ig kappa chain V-I region Walker)	
P01614	P01614	KVD40_HUMAN	reviewed	Immunoglobulin kappa variable 2D-40 (Ig kappa chain V-II region Cum)	
P01615,P01616,P01617	P01615	KVD28_HUMAN	reviewed	Immunoglobulin kappa variable 2D-28 (Ig kappa chain V-II region FR) (Ig kappa chain V-II region GM607) (Ig kappa chain V-II region MIL) (Ig kappa chain V-II region TEW)	
P01619,P01620,P01621,P01622,P01623	P01619	KV320_HUMAN	reviewed	Immunoglobulin kappa variable 3-20 (Ig kappa chain V-III region B6) (Ig kappa chain V-III region GOL) (Ig kappa chain V-III region HAH) (Ig kappa chain V-III region HIC) (Ig kappa chain V-III region IARC/BL41) (Ig kappa chain V-III region NG9) (Ig kappa chain V-III region SIE) (Ig kappa chain V-III region Ti) (Ig kappa chain V-III region WOL)	
P01624	P01624	KV315_HUMAN	reviewed	Immunoglobulin kappa variable 3-15 (Ig kappa chain V-III region CLL) (Ig kappa chain V-III region POM)	
P06312,P01625	P06312	KV401_HUMAN	reviewed	Immunoglobulin kappa variable 4-1 (Ig kappa chain V-IV region B17) (Ig kappa chain V-IV region JI) (Ig kappa chain V-IV region Len) (Ig kappa chain V-IV region STH)	
P01699	P01699	LV144_HUMAN	reviewed	Immunoglobulin lambda variable 1-44 (Ig lambda chain V-I region MEM) (Ig lambda chain V-I region VOR)	
P01700	P01700	LV147_HUMAN	reviewed	Immunoglobulin lambda variable 1-47 (Ig lambda chain V-I region HA) (Ig lambda chain V-I region WAH)	
P01703	P01703	LV140_HUMAN	reviewed	Immunoglobulin lambda variable 1-40 (Ig lambda chain V-I region NEWM)	
P01705	P01705	LV223_HUMAN	reviewed	Immunoglobulin lambda variable 2-23 (Ig lambda chain V-II region NEI)	
P01709,P01710	P01709	LV208_HUMAN	reviewed	Immunoglobulin lambda variable 2-8 (Ig lambda chain V-II region BO) (Ig lambda chain V-II region MGC)	
P01706,P01707,P01708,P01712,P01713	P01706	LV211_HUMAN	reviewed	Immunoglobulin lambda variable 2-11 (Ig gamma lambda chain V-II region DOT) (Ig lambda chain V-II region BOH) (Ig lambda chain V-II region BUR) (Ig lambda chain V-II region NIG-58) (Ig lambda chain V-II region TRO) (Ig lambda chain V-II region WIN)	
P01714	P01714	LV319_HUMAN	reviewed	Immunoglobulin lambda variable 3-19 (Ig lambda chain V-III region SH)	
P01715,P01716	P01715	LV301_HUMAN	reviewed	Immunoglobulin lambda variable 3-1 (Ig lambda chain V-IV region Bau) (Ig lambda chain V-IV region MOL) (Ig lambda chain V-IV region X)	
P01717	P01717	LV325_HUMAN	reviewed	Immunoglobulin lambda variable 3-25 (Ig lambda chain V-IV region Hil)	
P01718	P01718	LV327_HUMAN	reviewed	Immunoglobulin lambda variable 3-27 (Ig lambda chain V-IV region Kern)	
P01719	P80748	LV321_HUMAN	reviewed	Immunoglobulin lambda variable 3-21 (Ig lambda chain V-III region LOI) (Ig lambda chain V-V region DEL) (Ig lambda chain V-VII region MOT)	
P01721,P01722	P01721	LV657_HUMAN	reviewed	Immunoglobulin lambda variable 6-57 (Ig lambda chain V-VI region AR) (Ig lambda chain V-VI region EB4) (Ig lambda chain V-VI region NIG-48) (Ig lambda chain V-VI region SUT) (Ig lambda chain V-VI region WLT)	
P01704,P01711,P04209	P01704	LV214_HUMAN	reviewed	Immunoglobulin lambda variable 2-14 (Ig lambda chain V-II region NIG-84) (Ig lambda chain V-II region TOG) (Ig lambda chain V-II region VIL)	
P01701,P01702,P06888	P01701	LV151_HUMAN	reviewed	Immunoglobulin lambda variable 1-51 (Ig lambda chain V-I region BL2) (Ig lambda chain V-I region EPS) (Ig lambda chain V-I region NEW) (Ig lambda chain V-I region NIG-64)	
P01593,P01595,P01605,P01608,P01609,P01613,P80362	P01593	KVD33_HUMAN	reviewed	Immunoglobulin kappa variable 1D-33 (Ig kappa chain V-I region AG) (Ig kappa chain V-I region Bi) (Ig kappa chain V-I region Lay) (Ig kappa chain V-I region Ni) (Ig kappa chain V-I region Rei) (Ig kappa chain V-I region Roy) (Ig kappa chain V-I region Scw) (Ig kappa chain V-I region WAT)	
