Colonne1;Colonne2;Colonne3
;0610195A;SVLTQPPSASGVPGQSVIISCSGSSSNIGRNTVNWYQQVPGAAPKLLVYSNNQWPSGVPDRFSGSKSGTSASLAISGLHSEDEADYFCATWDDSLDGPVFGGGTKLTVLGQPKAAPSVTLFPPSSEELQANKATLVCLISDFYPGAVTVAWKADSSPVKAGVETTTPSKZSBBKYAASSYLSLTPEQWKSHRSYSCZVTHZGSTVZKTVAPTECS
;0709220A;IQMTQSPSTLSASVGDRVTITCRTSQSISRWLAWYQQKPGEAPKVLIYGASNLESGVPSRFSGSGSGTEFTLTISSLQSDDFATYYCQQYDSFPYTFGQGTKLEIKRTVAAPSVFIFPPSDEQLKSGTASVVCLLDDFYPREAKVQWKVDNALQSGNSQESVTEQDSKDSTYSLSSTLTLSKADYEKHKVYACEVTHQGLSSPVTKSFNRGEC
;1002833A;FMLTQPHSVSESPGKTVIISCTRSDGTIAGYYVQWYQQRPGRAPTTVIFEDTQRPSGVPDRFSGSIDRSSNSASLTISGLQTEDEADYYCQSYDRDHWVFGGGTKLTVLGQPK
;1006259A;YELTQPPSVSVSPGQTARITCSGDALPAEYAYWYQQKPGQAPVMVIYETNKRPSGIPERFSGSTSGTTVTLTISGVQAEDEADYYCSSADSSQGMVFGGGTKLTVLGQPK
;1006259B;SVLTQPPSASGTSGQRVTISCSGSSSNLGSNQVNWYRHLPGTAPKLVIYSDSQRPSGVPDRISASKSGTSASLAISGLQSEDESDYYCASWDDSLDGPVFGGGTKVTVLGQPK
;1006259C;SVLTQPPSASGTPGQRVTISCSGSSSNIGETNSVSWYQHLPGTAPKLLIYEDNSRASGVSDRFSASKSGTSASLAISGLQPEDETDYYCAAWDDSLDVAVFGTGTKVTVLGQPK
;1006259D;SALTQPASVSGSPGQSITISCTGTSSDVGGYNYVSWFQQHPGKAPKLMIFDVSERPSGVSDRFSGSKSGNTASLTISGLQAEDEADYYCSSYAGSNTVIFGGGTKLTVLGQPK
;1006259E;SVLTQPPSASGTPGQRVTISCSGSGSNIGSHTVNWYHQFPGTAPKLLIYRNDQRPSGVPDRFSGSKSGTSASLAISGLQSEDEADYYCAAWDDSLDGPVFGGGTKLTVLGQPK
;1103183A;SVLTQPPSASGTPGQRVTISCSGSTSNIGSNTVTWYQHLPGTAPKLLIYSNDQRPSGVPHRFSGSKSGASASLAISGLQSEDETDYYCATWDDSLNGPVFGGGTKVTVQGQPKKS
;1203309A;FMLTQPHSVSESPGKTVTISCTRSSGSIASYYVQWYQLRPGSAPTTVIYEDNQRPSGVPDRFSGSIDRSSNSASLTVSELKTEDEADYYCQSYDSNNWVFGGGTKLTVLGQPKAAPSVTLFPPSSEELQANKATLVCLISDFYPGAVTVAWKADSSPVKAGVETTTPSKQSNNKYAASSYLSLTPEQWKSHKSYSCQVTHEGSTVEKTVAPTECS
;1303369A;TFYELTQPPSVSLSAGQTAMITCSGDALGDKDVHWYQQKPGQSPVLVIYQDNKRPSGIPERFSGSNSGNTASLTVSRVEAGDEADYFCQAWDNGSYEVVFGGGTKVTVLGQPK
P01594;1B0W_A;IQMTQSPSSLSASVGDRVTITCQASQDISDYLIWYQQKLGKAPNLLIYDASTLETGVPSRFSGSGSGTEYTFTISSLQPEDIATYYCQQYDDLPYTFGQGTKVEIKR
;1B6D_A;IQMTQSPSSLSASVGDRVTITCQASQDISSYLNWYQQKPGKAPKLLIHAASSLETGVPSRFSGSGSGTDFSFTISSLQPEDLATYYCQQYDSLPLTFGGGTKVEIKRTVAAPSVFIFPPSDEQLKSGTASVVCLLNNFYPREAKVQWKVDNALQSGNSQESVTEQDSKDSTYSLSSTLTLSKADYEKHKVYACEVTHQGLSSPVTKSFNRG
;1BJM_A;SVLTQPPSASGTPGQRVTISCSGSSSNIGENSVTWYQHLSGTAPKLLIYEDNSRASGVSDRFSASKSGTSASLAISGLQPEDETDYYCAAWDDSLDVAVFGTGTKVTVLGQPKANPTVTLFPPSSEELQANKATLVCLISDFYPGAVTVAWKADGSPVKAGVETTKPSKQSNNKYAASSYLSLTPEQWKSHRSYSCQVTHEGSTVEKTVAPTECS
P01721;1CD0_A;FMLNQPHSVSESPGKTVTISCTRSSGNIDSNYVQWYQQRPGSAPITVIYEDNQRPSGVPDRFAGSIDRSSNSASLTISGLKTEDEADYYCQSYDARNVVFGGGTRLTVLG
P01709;1DCL_A;SALTQPPSASGSLGQSVTISCTGTSSNVGGYNYVSWYQQHAGKAPKVIIYEVNKRPSGVPDRFSGSKSGNTASLTVSGLQAEDEADYYCSSYEGSDNFVFGTGTKVTVLGQPKANPTVTLFPPSSEELQANKATLVCLISDFYPGAVTVAWKADGSPVKAGVETTKPSKQSNNKYAASSYLSLTPEQWKSHRSYSCQVTHEGSTVEKTVAPTECS
P01709;1DCL_B;SALTQPPSASGSLGQSVTISCTGTSSNVGGYNYVSWYQQHAGKAPKVIIYEVNKRPSGVPDRFSGSKSGNTASLTVSGLQAEDEADYYCSSYEGSDNFVFGTGTKVTVLGQPKANPTVTLFPPSSEELQANKATLVCLISDFYPGAVTVAWKADGSPVKAGVETTKPSKQSNNKYAASSYLSLTPEQWKSHRSYSCQVTHEGSTVEKTVAPTECS
P06312;1EK3_A;IVMTQSPDSLAVSPGERATINCKSSQNLLDSSFDTNTLAWYQQKPGQPPKLLIYWASSRESGVPDRFSGSGSGTDFTLTISSLQAEDVAVYYCQQYYSTPPTFGGGTKVEIKR
P01834;1HEZ_A;IQMTQSPSSLSASVGDRVTITCRTSQSISSYLNWYQQKPGKAPKLLIYAASSLQSGVPSRFSGSGSGTDFTLTISSLQPEDFATYYCQQSYSTPRTFGQGTKVEIKRTVAAPSVFIFPPSDEQLKSGTASVVCLLNNFYPREAKVQWKVDNALQSGNSQESVTEQDSKDSTYSLSSTLTLSKADYEKHKVYACEVTHQGLSSPVTKSFNRGEC
Q6PJG0;1LGV_A;TALTQPASVSGSPGQSITVSCTGVSSIVGSYNLVSWYQQHPGKAPKLLTYEVNKRPSGVSDRFSGSKSGNSASLTISGLQAEDEADYYCSSYDGSSTSVVFGGGTKLTVLGQPKAAPSVTLFPPSSEELQANKATLVCLISDFYPGAVTVAWKADSSPVKAGVETTKPSKQSNNKYAASSYLSLTPEQWKSHRSYSCQVTHEGSTVEKTVAPTAC
P0DOY2;1LIL_A;SPGQTARITCSGEKLGDAYVCWYQQRPGQSPVVVIYQDNRRPSGIPERFSGSSSGNTATLTISGTQTLDEADYYCQVWDSNASVVFGGGTKLTVLGQPKAAPSVTLFPPSSEELQANKATLVCLISDFYPGAVTVAWKADSSPVKAGVETTTPSKQSNNKYAASSYLSLTPEQWKSHRSYSCQVTHEGSTVEKTVAPTECS
P01594;1QP1_A;IQMTQSPSSLSASVGDRVTITCQASQDISDYLIWYQQKLGKAPNLLIYDASTLETGVPSRFSGSGSGTEYTFTISSLQPEDIATYYCQQYDDLPYTFGQGTKVEIK
P01593;1REI_A;IQMTQSPSSLSASVGDRVTITCQASQDIIKYLNWYQQTPGKAPKLLIYEASNLQAGVPSRFSGSGSGTDYTFTISSLQPEDIATYYCQQYQSLPYTFGQGTKLQIT
P01593;1REI_B;IQMTQSPSSLSASVGDRVTITCQASQDIIKYLNWYQQTPGKAPKLLIYEASNLQAGVPSRFSGSGSGTDYTFTISSLQPEDIATYYCQQYQSLPYTFGQGTKLQIT
P01593;1WTL_A;IQMTQSPSSLSASVGDRVTITCRASQDITNYVNWFQQRPGQAPKVLIYGASILETGVPSRFSGSGSGTDFTFTISSLQPEDIATYYCQQYDTLPLTFGGGTKVDIKR
P01593;1WTL_B;IQMTQSPSSLSASVGDRVTITCRASQDITNYVNWFQQRPGQAPKVLIYGASILETGVPSRFSGSGSGTDFTFTISSLQPEDIATYYCQQYDTLPLTFGGGTKVDIKR
P01721;2CD0_A;FLLTQPHSVSESPGKTVTISCTRSSGSIANNYVHWYQQRPGSSPTTVIFEDDHRPSGVPDRFSGSVDTSSNSASLTISGLKTEDEADYYCQSYDHNNQVFGGGTKLTVLG
P01709;2MCG_1;SALTQPPSASGSLGQSVTISCTGTSSDVGGYNYVSWYQQHAGKAPKVIIYEVNKRPSGVPDRFSGSKSGNTASLTVSGLQAEDEADYYCSSYEGSDNFVFGTGTKVTVLGQPKANPTVTLFPPSSEELQANKATLVCLISDFYPGAVTVAWKADGSPVKAGVETTKPSKQSNNKYAASSYLSLTPEQWKSHRSYSCQVTHEGSTVEKTVAPTECS
P01709;2MCG_2;SALTQPPSASGSLGQSVTISCTGTSSDVGGYNYVSWYQQHAGKAPKVIIYEVNKRPSGVPDRFSGSKSGNTASLTVSGLQAEDEADYYCSSYEGSDNFVFGTGTKVTVLGQPKANPTVTLFPPSSEELQANKATLVCLISDFYPGAVTVAWKADGSPVKAGVETTKPSKQSNNKYAASSYLSLTPEQWKSHRSYSCQVTHEGSTVEKTVAPTECS
;2OMB_A;SALPQPASVSGSPGQSITISCTGTSSDVGGYDLVSWYQHHPGGAPKLIIYEVTNRPSGVSDRFSGSKSGNTASLTISGLQAEDEADYYCSSYASGSTPRIFGGGTRLTVLGQPKAAPSVTLFPPSSEELQANKATLVCLISDFYPGAVTVAWKADSSPVKAGVETTTPSKQSNNKYAASSYLSLTPEQWKSHRSYSCQVTHEGSTVEKTVAPTECS
;2RHE_A;SVLTQPPSASGTPGQRVTISCTGSATDIGSNSVIWYQQVPGKAPKLLIYYNDLLPSGVSDRFSASKSGTSASLAISGLESEDEADYYCAAWNDSLDEPGFGGGTKLTVLGQPK
;3BJL_A;SVLTQPPSASGTPGQRVTISCSGSSSNIGENSVTWYQHLSGTAPKLLIYEDNSRASGVSDRFSASKSGTSASLAISGLQPEDETDYYCAAWDDSLDVAVFGTGTKVTVLGQPKANPTVTLFPPSSEELQANKATLVCLISDFYPGAVTVAWKADGSPVKAGVETTKPSKQSNNKYAASSYLSLTPEQWKSHRSYSCQVTHEGSTVEKTVAPTECS
;3BJL_B;SVLTQPPSASGTPGQRVTISCSGSSSNIGENSVTWYQHLSGTAPKLLIYEDNSRASGVSDRFSASKSGTSASLAISGLQPEDETDYYCAAWDDSLDVAVFGTGTKVTVLGQPKANPTVTLFPPSSEELQANKATLVCLISDFYPGAVTVAWKADGSPVKAGVETTKPSKQSNNKYAASSYLSLTPEQWKSHRSYSCQVTHEGSTVEKTVAPTECS
P01709;3MCG_1;SALTQPPSASGSLGQSVTISCTGTSSDVGGYNYVSWYQQHAGKAPKVIIYEVNKRPSGVPDRFSGSKSGNTASLTVSGLQAEDEADYYCSSYEGSDNFVFGTGTKVTVLGQPKANPTVTLFPPSSEELQANKATLVCLISDFYPGAVTVAWKADGSPVKAGVETTKPSKQSNNKYAASSYLSLTPEQWKSHRSYSCQVTHEGSTVEKTVAPTECS
;4BJL_A;SVLTQPPSASGTPGQRVTISCSGSSSNIGENSVTWYQHLSGTAPKLLIYEDNSRASGVSDRFSASKSGTSASLAISGLQPEDETDYYCAAWDDSLDVAVFGTGTKVTVLGQPKANPTVTLFPPSSEELQANKATLVCLISDFYPGAVTVAWKADGSPVKAGVETTKPSKQSNNKYAASSYLSLTPEQWKSHRSYSCQVTHEGSTVEKTVAPTECS
;4BJL_B;SVLTQPPSASGTPGQRVTISCSGSSSNIGENSVTWYQHLSGTAPKLLIYEDNSRASGVSDRFSASKSGTSASLAISGLQPEDETDYYCAAWDDSLDVAVFGTGTKVTVLGQPKANPTVTLFPPSSEELQANKATLVCLISDFYPGAVTVAWKADGSPVKAGVETTKPSKQSNNKYAASSYLSLTPEQWKSHRSYSCQVTHEGSTVEKTVAPTECS
;6a;FMLTQPHSVSESPGKTVTISCTRSSGSIASNYVQWYQQRPGSSPTTVIYEDNQRPSGVPDRFSGSIDSSSNSASLTISGLKTEDEADYYCQSYDSSNVVFGGGTKLTVLG
;751419A;IQMTQSPSSLSASVGDRVTITCQASQDIIKYLNWYQQTPGKAPKLLIYEASNLQAGVPSRFSGSGSGTDYTFTISSLQPEDIATYYCQQYQSLPYTFGQGTKLQITRTVAAPSVFIFPPSBZZLKSGTASVVCLLBBFYPREAKVQWKVBBALZSGBSZZSVTZZBSKDSTYSLSSTLTLSKADYEKHKLYACEVTHQGLSSPVTKSFNRGEC
;751423A;IVMTQSPNSLAVSLGERATINCKSSQSVLYSSNSKNYLAWYQQKPGQPPKLLIYWASTRESGVPDRFSGSGSGTDFTLTISSLQAEDVAVYYCQQYYSTPYSFGQGTKLEIKRTVAAPSVFIFPPSBZZLKSGTASVVCLLNNFYPREAKVQWKVBBALZSGBSZZSVTZZBSKBSTYSLSSTLTLSKADYEKHKVYACZVTHZGLSSPVTKSFNRGEC
;752860A;SVLTQPPSASGTPGQRVTISCSGGNFDIGRNSVNWYQVHPGTAPRLLIYSSDQRSSGVPDRFSGSKSGTSASLAISGLQSENEADYFCATWDDSLDGPVFGGGTKVTVLG
;96-100;IQMTQSPSSLSASVGDRVTITCQASQDIINYVNWYQQKPGKAPKVLVYDASKLETGVPSRFSGSGSGTDFTFTISSLQPEDIATYYCQQYENLPLTFGGGTKVEIKRTVAAPSVFIFPPSDEQLKSGTASVVCLLNNFYPREAKVQWKVDNALQSGNSQESVTEQDSKDSTYSLSSTLTLSKADYEKHKVYACEVTHQGLSSPVTKSFNRGEC
;A29700;DASVTLGITGLQTGDEADYYCGTWDSSLSAAVFGGGTKLTVLGQPK
;A42193;SVLTQPPSASGTPGQRVTISCSGSSSNIGSNVVTWYQQLPGTAPKLLIYTNNQRPSGVPGRFSGSKSGTSASLAVSGLQSEDEADYYCATWDDSVNGWVFGGGTKLTVLGQPKAAPSVTLFPPSSEELQANKATLVCLISDFYPGAVTVAWKADSSPVKAGVETTTPSKQSNNKYAASSYLSLTPEQWKSHKSYSCQVTHEGSTVEKTVAPTECS
;AAB20217;IVMTQSPGTLSVSPGERATLSCRASQSVSYNLAWYQQKPGQAPRLLIYSTSIRATGIPARFSGSGSETEFTLTISILQSEDFAVYYCQHYEDWPRTFGQGTKLEIKRTVAAPSVFIFPPSDEQLKSGTASVVCLLNNFYPREAKVQWKVDNALQSGNSQESVTEQDSKDSTYSLSSTLTLSKADYEKHKVYACEVTHQGLSSPVTKSFNRGEC
;AAB31507;SQLELTQPPSASASLGASVKVTCTLSRGYDSYAIAWHQQQPERGLRYLMKINSDGSHTRGDAIPDRFSGSSSGTERILTISSLQSEDEADYYCQTWGSDIQVFGGGTRLTVLGQPK
;AAB32279;IQMTQSPSSLSASIGDYVTITCQARQAIIDYLNWYQQWPGRAPWCLIY
;P01593;IQMTQSPSSLSASVGDRVTITCQASQDINHYLNWYQQGPKKAPKILIYDASNLETGVPSRFSGSGFGTDFTFTISGLQPEDIATYYCQQYDTLPRTFGQGTKLEIKR
;P01594;IQMTQSPSSLSASVGDRVTITCQASQDISDYLNWYQQKPGKAPKLLIYDASNLESGVPSRFSGGGSGAHFTFTISSLQPEDIATYYCQQYDYLPWTFGQGTKVEIKR
;P01595;IQMTQSPSPLSASVGDSVTITCQASQDIRNSLIWYQQKPGKAPKFLIYDAENLEIGVPSRFRGSGSGTDFALSISSLQPEDFATYYCQQYYNLPYTFGQGTKLEIKR
;P01596;IQMTQSPSTLSASVGDRVAITCRASQNISSWLAWYQQKPGKAPKVLIYKSSSLESGVPSRFSGSGSGTDFTLTISSLZPBBFATYYCQQYNTFFTFGPGTKVDIKR
;P01597;IZMTQSPSSLSASVGDRVTITCRAGQSVNKYLNWYQQKPGKAPKVLIFAASSLKSGVPSRFSGSGSGTDFTLTISGLLPEDFATYYCQQSYTTPYTFGPGTKVEMTR
;P01598;IQMTQSPSTLSASVGDRVTITCRASQSINTWLAWYQQKPGKAPKLLMYKASSLESGVPSRFIGSGSGTEFTLTISSLQPDDFATYYCQQYNSDSKMFGQGTKVEVKG
;P01599;IQMTQSPSSLSASVGDRVTIICRASQGIRNDLTWYQQKPGKAPKELIYAASNLQSGVPSRFSGSGAGTEFTLTISSLQPEDFATYYCLQQNSYPRSFGQGTKVEIKR
;P01600;IQMTQSPSSLSASVGDRVTITCRASQSISSYLSWYQQKPGKAPQVLIYAASSLPSGVPSRFSGSGSGTDFTLTISSLQPEDFATYYCQQNYITPTSFGQGTRVEIKR
;P01603;IQMTQSPSTLSVSVGDRVTITCEASQTVLSYLNWYQQKPGKAPKLLIYAASSLETGVPSRFSGQGSGTBFTFTISSVZPZBFATYYCQZYLDLPRTFGQGTKVDLKR
;P01604;IQMTQSPSTQPASVGDRVTITCRASQSINIWLAWYQQKPEKAPKLLIYKASTLETGVPSRFSGSGSGTEFTLTINSLQPDDFATYYCQQYSRYPYTFGQGTKLDIKR
;P01605;IQMTQSPSSLSVSVGDRVTITCQASQNVNAYLNWYQQKPGLAPKLLIYGASTREAGVPSRFSGSGSGTDFTFTISSLQPEDIATYYCQQYNNWPPTFGQGTKVEVKR
;P01606;IQMTZSPSSLSASVGBRVTITCRASZTISSYLBWYZZKPGKAPBLLIYAASBLHSGVPSRFSGSGSGTBFTFTISSLZPZBFATYYCZZSYSSPTTFGZGTRLZIKR
;P01608;IQMTQSPSSLSASVGDRVTITCQASQDISIFLNWYQQKPGKAPKLLIYDASKLEAGVPSRFSGTGSGTDFTFTISSLQPEDIATYYCQQFDNLPLTFGGGTKVDFKR
;P01609;IQMTQSPSSLSASVGDRVTITCQASQDIRKHLNWYDQKPGKAPRLLIYGASTLETGVPSRFSGSGSGTDFTLTISTLQPEDIGNYYCQQYDNVPITFGQGTRVENKG
;P01610;IQMTQSPSSLSASVGDRVTITCRASQGIRNDLTWYQQKPGTAPKRLIYGATSLQSGVPSRFSGSGSGTEFTLTINSLQPEDFATYYCLQYSSFPWTFGQGTKVEVKR
;P01611;IQMTQSPSSVSASVGDRVTITCRASQDISHWLAWYQQKSGKAPKLLIYSASSLENGVPSRFSGSGSGTEFTLTISSLQPEDFATYFCQQAHSVPLTFGGGTTVDIKR
;P01612;VQMTQSPSSLSASVGDRVIITCRASQSSVDYLNWYQQKPGKAPKLLIFDTSNLQSGVPSRFSGGRSGTDFTLTISSLQPDDFATYYCQQSYTNPEVTFGGGTTVDIKR
;P01613;IQMTQSPSSLSATVGDRVTLLCEASQSVLESGNTFLAWYQQKPKKAPKLLIYDASNLETGVPSRFSESGSGTDFTFTISGLZPZBFAVYYCQZYDTLPSTFGVASKVESKR
;P01614;DIVMTQTPLSLPVTPGEPASISCRSSQSLLDSGDGNTYLNWYLQKAGQSPQLLIYTLSYRASGVPDRFSGSGSGTDFTLKISRVQAEDVGVYYCMQRLEIPYTFGQGTKLEIRR
;P01615;VVMTQSPLFLPVTLGEPASIQCRSSQSLVYRBGBTYLBWYLQKPGQSPELLIYLSSYRDSGVPDRFSDSGSGTDFTLKITRVQAEDVGVYYCMQATZSPYTFGQGTKLZIKR
;P01616;IVLTQSPLSLPVTPGEPASISCRSSQNLLZSBGBYLDWYLZKPGZSPZLLIYLGSNRASGVPNRFSGSGSGTBFTLKISRVZAZBVGVYYCMQALQTPLTFGGGTNVEIKR
P01617;P01617;IVMTQSPLSLPVTPGEPASISCRSSQSLLHSDGFDYLNWYLQKPGQSPZLLIYALSNRASGVPDRFSGSGSGTDFTLKISRVEAEDVGVYYCMZALQAPITFGQGTRLEIKR
;P01619;IVLTZSPGTLSLSPGZRAALSCRASQSLSGNYLAWYQQKPGQAPRLLMYGVSSRATGIPDRFSGSGSGADFTLTISRLZPEDFAVYYCQQYGSSPFTFGQGSKLEIK
;P01620;IVLTQSPGTLSLSPGERATLSCRASQSVSNSYLAWYQQKPGQAPRLLIYGASSRATGIPDRFSGSGSGTDFTLTISRLEPDDFAVYYCQQYGSSPQTFGQGSKVEIKR
;P01621;PSGEIVLTQSPGTLSLSPGERATLSCRASQSVSSSYLAWYQQKPGQAPRLLIYGATSRATGIPDRFSGSASGTDFTLTISRLEPEDFAVYYCQQYGNSQ
;P01622;IVLTQSPGTLSLSPGERATLSCRASQSVSNSFLAWYQQKPGQAPRLLIYVASSRATGIPDRFSGSGSGTDFTLTISRLEPEDFAVYYCQQYGSSPSTFGQGTKVELKR
;P01623;IVLTQSPGTLSLSPGERATLSCRASQSVSSGYLGWYQQKPGQAPRLLIYGASSRATGIPDRFSGSGSGTDFTLTISRLEPEDFAVYYCQQYGSLGRTFGQGTKVEIKR
;P01624;IVMTQSPVTLSVSPGERATLSCRASQSISNSYLAWYQQKPSGSPRLLIYGASTRATGIPARFSGSGSGTEFTLTISSLQSEDFAVYYCQQYNNWPPTFGQGTRVEIKR
;P01625;IVMTQSPDSLAVSLGERATINCKSSQSVLYSSNSKNYLAWYQQKPGQPPKLLIYWASTRESGVPDRFSGSGSGTDFTLTISSLQAEDVAVYYCQQYYSTPYSFGQGTKLEIKR
;P01699;SVLTQPPSASGTPGQRVTISCSGGNFDIGRNSVNWYQVHPGTAPRLLIYSSDQRSSGVPDRFSGSKSGTSASLAISGLQSENEADYFCATWDDSLDGPVFGGGTKVTVLG
;P01700;SVLTQPPSVSGTPGQRVTISCSGGSSNGTGNNYVYWYQQLPGTAPKLLIYRDDKRPSGVPDRFSGSKSGTSASLAISGLRSEDEAHYHCAAWDYRLSAVVFGGGTQLTVLR
;P01701;SVLTQPPSVSAAPGQKVTISCSGGSTNIGNNYVSWHQHLPGTAPKLLIYEDNKRPSGIPDRISASKSGTSATLGITGLRTGDEADYYCATWDSSLNAVVFGGGTKVTVLG
;P01702;SVLTQPPSVSAAPGQEVTISCSGSSSNIGDNFVSWYQQLPGTAPKLLIYDNNKRPSGIPDRFSGSKSGTSATLGITGLQTGDEADYYCGTWDSSLSVGMFGGGTRVTVLG
;P01703;SVLTQPPSVSGAPGQRVTISCTGSSSNIGAGNHVKWYQQLPGTAPKLLIFHNNARFSVSKSGSSATLAITGLQAEDEADYYCQSYDRSLRVFGGGTKLTVLR
;P01704;SALTQPASVSASPGQSITISCTGTTNDIGSYSYVSWYQQYPGKAPKVLIFDVNSRPSGVSHRFSGSKSGNTASLTISGLQAEDEAHYFCSSYRTSGTIIFGGGTYVTVLR
;P01705;SALTQPASVSGSPGQSITISCTGTTSDVGSYNFVSWYQQNPGKAPKLMIYEGNKRPSGVSNRFSGSKSGKTASLTISGLQVEDEADYYCCSYAGNSTRVFGGGTRVTVLS
;P01706;SALTQPRSVSGSPGQSVTISCAGTSSDVGGNHFVSWYQQHPGKAPKLIIYGVNKRPSGVPYRFSGSKSGNTASLTISGLQAEDEAHYYCCSYAGRFTWVFGGGTNLTVLG
;P01707;SALTQPRSVSGSPGQSVTISCTGTSSDVGAYNSVSWYQQHPGKAPKLMIFDVTKRPSGVPDRLSGSKSGDTASLTISGLRADDEADYYCCSYAGRYSVIFGGGTKLTVLG
;P01708;SALTQPRSVSGSPGHSVTISCIGTSSNVGDYKYVSWYQQHPGKAPKLIIYEVSSRPSGVPDRFSGSKSGNTASLTISGLQAEDEADYYCCSYIGSYVFGTGTKVIVLG
;P01709;SALTQPPSASGSLGQSVTISCTGTSSDVGGYNYVSWYQQHAGKAPKVIIYEVNKRPSGVPDRFSGSKSGNTASLTVSGLQAEDEADYYCSSYEGSDNFVFGTGTKVTVLG
;P01710;SALTQPPSASGSPGQSVTISCTGTSSDVGDNKYVSWYQQHPGRAPKLVIFEVSQRPSGVPDRFSGSKSDNTASLTVSGLRAEDEADYYCSSYVDNNNFVFGGGTKLTVLR
;P01711;SALTQPASVSGSLGQSITISCTGTSSDVGGYNYVSWFQQHPGTAPKLIISEVRNRPSGVSDRFSGSKSANTASLTISGLQAEDEADYYCSSYTSSNSVVFGGGTKLTVLG
;P01712;SALTQPPRVSGSPGQSVTISCTGSYSNVTGYNHVSWYQQDPGKVPKLMIYDVDKRPSGVPDRFSGSKSANTASLTISGLQANNEADYYCSSYGGTYSLIFGGGTKLTVLG
;P01713;SALTQPRSVSGSPGQSLTISCSGAPCDVDGCESVSWYQQHPGKAPKLIIYGFSNRPSGVPLRFSGSKSGDAASLTISGLQVEDEADYYCSSYADSSVIFGAGTKLTVLRZPKAAPSVTLFPPSSEELQANKATLVCLISDFYPGAVTVAWKADSSPVKAGVETTTPSKZSBBKYAASSYLSLTPEQWKSHRSYSCQVTHEGSTVEKTVAPTECS
;P01714;GHTASLTITGAQAEDEADYYCNSRDSSGKHVLFGGGTKLTVLG
;P01715;SPGQTASITCSGDKLGEQYVCWYQQKPGQSPVLVIYHDSKRPSGIPERFSGSNSGTTATLTISGTQAMDEADYYCQAWDSYTVIFGGGTKLTVLG
;P01716;SPGQTASITCSGDKLGDKDVCWYQQRPGQSPVLVIYQDNQRSSGIPERFSGSNSGNTATLTISGTQAMDEADYYCQAWDSMSVVFGGGTRLTVLS
;P01717;YELTQPPSVSVSPGQTARITCSANALPNQYAYWYQQKPGRAPVMVIYKDTQRPSGIPQRFSSSTSGTTVTLTISGVQAEDEADYYCQAWDNSASIFGGGTKLTVLG
;P01718;GATATLTISGAQSVDEADYFCQTWDTITAIFGGGTKLTVLS
P01719;P01719;GNTAALTISRVEAGDEADYYCEVWDDRTAHVVFGGGTKLTVLG
;P01721;FMLTQPHSVSESPGKTVTFSCTGSGGSIADSFVQWYQQRPGSAPTTVIYDDNQRPSGVPDRFSGSIDDSANSASLTISGLKTEDEADYYCQSYNSNHHVVFGGGTKVTVLG
;P01722;LMLIQPPSVSESPGKTVTMSCTRTSDSIASNYVQWYRQRPGGAPTTLIYDTNQRPYGVPNRFSGSFDSSSNSASLTISGLTNDDTAMYFCQSYDSSNLWVFGGGTKLTVLS
;P04209;SALTQPASVSGSPGQSITISCTGTTSDVGGYDFVSWYQQHPGKAPKLLIYDVNSRPSGISNRFSGSKSGNTASLTISGLQAEDEADYYCSSFTTTNSRAVFGGGTKLSVLG
;P06888;SVLTQPPSLSAAPGQRVSISCSGSSSNIGKNYVDWYQQLPGTAPKLLIFNNNKRPSGIPDRFSGSKSGTSATLGITGLQTGDEAIYYCGTWDNRRSVFGGGTNVTVVG
;P80362;IQMTQSPSSLSASVGDRVTITCRASQDITNYVNWFQQRPGQAPKVLIYGASILETGVPSRFSGSGSGTDFTFTISSLQPEDIATYYCQQYDTLPLTFGGGTKVDIKR
;S02083;GNTASLTITGARAEDEADYYCNSRNSSGNYHVIFGGGTKLTVLSQPKAAPSVTLFPPSSEELQANKATLVCLISDFYPGAV
;S03876;IVLTQSPLSLPVTPGEPASISCKSSQSLMHSSGDNYLDWYLQKPGQSPQIVIYLGSNRASGVPDTFSGSGSGTDFTLLISSVGAEDVGVYYCMQALQTPWTFGQGTKVGIKRTVAAPSVFIFP
